<?xml version="1.0" encoding="UTF-8" standalone="no"?>
<svg
   xmlns:dc="http://purl.org/dc/elements/1.1/"
   xmlns:cc="http://creativecommons.org/ns#"
   xmlns:rdf="http://www.w3.org/1999/02/22-rdf-syntax-ns#"
   xmlns:svg="http://www.w3.org/2000/svg"
   xmlns="http://www.w3.org/2000/svg"
   xmlns:sodipodi="http://sodipodi.sourceforge.net/DTD/sodipodi-0.dtd"
   xmlns:inkscape="http://www.inkscape.org/namespaces/inkscape"
   inkscape:version="0.92.3 (2405546, 2018-03-11)"
   sodipodi:docname="klingelbox.svg"
   id="svg1875"
   viewBox=" 0 0 1217.8356469999999 1334.7648769999998"
   height="376.7mm"
   width="343.7mm"
   version="1.1"
   inkscape:label="punkte">
  <metadata
     id="metadata1881">
    <rdf:RDF>
      <cc:Work
         rdf:about="">
        <dc:format>image/svg+xml</dc:format>
        <dc:type
           rdf:resource="http://purl.org/dc/dcmitype/StillImage" />
        <dc:title />
      </cc:Work>
    </rdf:RDF>
  </metadata>
  <defs
     id="defs1879" />
  <sodipodi:namedview
     inkscape:measure-end="686.236,1150.93"
     inkscape:measure-start="686.115,1154.47"
     inkscape:current-layer="svg1875"
     inkscape:window-maximized="0"
     inkscape:window-y="21"
     inkscape:window-x="0"
     inkscape:cy="771.34298"
     inkscape:cx="292.63461"
     inkscape:zoom="0.35355339"
     showgrid="false"
     id="namedview1877"
     inkscape:window-height="747"
     inkscape:window-width="1366"
     inkscape:pageshadow="2"
     inkscape:pageopacity="0"
     guidetolerance="10"
     gridtolerance="10"
     objecttolerance="10"
     borderopacity="1"
     bordercolor="#666666"
     pagecolor="#ffffff"
     inkscape:document-units="mm" />
  <!-- Front-->
  <!-- Back-->
  <!-- Left-->
  <!-- Right-->
  <!-- Top-->
  <!-- Bottom-->
  <g
     inkscape:label="g2380"
     style="display:inline;fill:#ff0000;fill-opacity:1;stroke:none"
     id="g2380"
     transform="matrix(0.03353038,0,0,-0.03353038,518.86298,520.32733)">
    <path
       style="fill:#ff0000;fill-opacity:1"
       inkscape:connector-curvature="0"
       id="path2378"
       d="m 4345,12486 c -73,-20 -183,-61 -280,-106 -216,-99 -487,-332 -705,-605 -284,-357 -381,-510 -488,-771 -33,-82 -88,-214 -122,-294 -163,-384 -231,-638 -316,-1167 -25,-154 -41,-233 -49,-233 -7,0 -29,-13 -50,-30 -45,-36 -51,-37 -75,-7 -24,30 -107,30 -148,0 -41,-30 -78,-107 -92,-190 -7,-40 -17,-76 -22,-79 -17,-10 -67,37 -88,84 -72,161 -131,244 -194,273 -50,23 -162,25 -209,5 -18,-8 -78,-57 -135,-110 -57,-52 -131,-115 -165,-138 -54,-38 -64,-50 -80,-98 -13,-40 -17,-76 -14,-131 3,-68 7,-81 43,-135 21,-32 78,-98 125,-145 71,-71 88,-94 93,-125 4,-22 2,-172 -4,-334 -17,-496 -34,-2152 -31,-3160 2,-949 2,-955 -18,-988 -12,-18 -29,-35 -39,-38 -54,-18 -121,-60 -145,-89 -51,-64 -60,-105 -54,-233 7,-151 16,-176 76,-206 75,-39 115,-94 172,-237 31,-79 53,-105 102,-118 41,-12 108,-16 151,-9 15,2 24,-13 51,-92 48,-143 183,-403 246,-473 63,-71 241,-193 327,-224 170,-62 361,8 527,194 67,74 93,115 142,215 70,142 91,203 132,383 85,370 103,528 104,905 1,162 -5,358 -11,435 -12,134 -91,682 -113,786 -6,28 -9,53 -6,55 2,3 85,-2 183,-10 363,-31 695,-49 906,-50 l 216,-1 6,-37 c 7,-41 82,-192 119,-238 12,-16 34,-34 49,-40 15,-7 41,-36 59,-65 17,-28 44,-60 60,-69 36,-21 38,-57 9,-136 -24,-65 -25,-88 -6,-109 58,-65 77,-81 96,-81 20,0 22,-4 17,-42 -3,-24 -11,-179 -18,-345 -10,-242 -10,-442 0,-995 6,-381 16,-1024 22,-1428 6,-404 13,-856 17,-1004 l 7,-269 43,-15 c 24,-8 45,-12 46,-11 2,2 -3,227 -10,499 -7,272 -20,988 -29,1590 -14,885 -15,1163 -6,1450 7,195 13,398 14,450 l 2,95 53,3 c 30,2 60,-2 67,-8 17,-14 35,-5 35,16 0,8 -8,27 -17,41 -10,15 -19,36 -19,48 -1,11 -12,45 -24,75 -12,30 -26,69 -31,86 -5,18 -16,37 -24,44 -14,11 -14,15 1,31 10,11 23,19 31,19 17,0 17,24 -1,40 -13,10 -10,26 20,110 40,115 64,211 64,257 0,17 4,34 9,37 5,3 161,13 348,21 749,33 1419,101 1593,160 49,17 120,75 120,99 0,27 -50,122 -78,148 -15,14 -105,76 -201,138 -95,62 -196,136 -225,164 -215,212 -413,404 -426,412 -8,5 -26,29 -39,54 -14,25 -69,122 -124,215 -212,363 -304,585 -482,1165 -95,307 -122,383 -176,492 -42,84 -63,112 -151,200 -156,157 -265,231 -463,312 -23,10 -47,29 -57,46 -20,35 -67,66 -122,81 l -39,10 5,90 c 5,88 6,90 42,122 25,21 40,45 46,72 17,74 13,95 -30,138 -22,22 -39,41 -37,43 2,3 39,13 83,25 43,11 88,28 98,37 32,28 56,93 56,152 0,53 2,57 66,130 67,76 177,233 248,350 96,160 181,367 250,604 26,89 68,411 81,611 13,222 -39,515 -128,715 -30,70 -143,236 -214,317 -66,75 -113,104 -235,144 -80,26 -111,31 -228,34 -93,3 -150,0 -185,-9 z m 215,-366 c 70,-28 161,-93 228,-164 38,-40 69,-90 112,-179 68,-141 86,-222 96,-447 8,-168 -3,-249 -60,-465 -100,-381 -179,-580 -316,-802 -56,-91 -76,-103 -175,-103 -74,0 -224,-34 -282,-63 -49,-25 -103,-77 -103,-100 -1,-26 -31,30 -57,107 -25,74 -27,94 -27,226 0,166 19,260 80,384 37,77 51,96 102,138 49,41 93,50 149,31 l 46,-16 -6,-56 c -6,-67 -47,-189 -79,-237 -17,-24 -31,-34 -50,-34 -33,0 -130,-37 -140,-53 -16,-26 -6,-96 25,-171 41,-101 66,-121 150,-121 80,0 121,21 205,104 88,86 152,202 186,335 29,111 32,172 12,301 -25,164 -80,271 -170,331 -53,35 -59,37 -121,32 -48,-4 -87,-16 -149,-46 -107,-51 -156,-87 -231,-170 -75,-84 -93,-109 -143,-200 l -39,-72 -19,42 c -10,23 -30,56 -44,72 -30,36 -113,76 -159,76 -117,0 -333,-107 -404,-201 -60,-78 -144,-241 -167,-324 -45,-160 -43,-342 6,-486 l 26,-75 -26,-51 c -27,-55 -35,-62 -79,-78 -75,-27 -181,-157 -222,-273 -26,-76 -75,-151 -75,-114 0,15 30,241 50,382 77,536 279,1126 548,1595 98,171 413,561 529,656 101,83 458,289 538,310 53,14 195,2 255,-21 z m -997,-1709 c 63,-70 91,-145 127,-346 33,-178 83,-379 119,-472 38,-96 84,-160 148,-205 46,-31 51,-32 150,-32 57,0 103,-3 103,-8 0,-4 -4,-8 -9,-8 -12,0 -41,-75 -41,-108 0,-58 20,-104 51,-115 l 29,-11 v -93 -93 h -35 c -48,0 -218,-56 -238,-78 -9,-10 -21,-32 -27,-48 -9,-25 -28,-38 -118,-82 -139,-67 -186,-103 -274,-211 -179,-220 -216,-306 -268,-616 -99,-592 -149,-805 -269,-1150 -110,-318 -139,-391 -168,-426 -14,-16 -27,-28 -29,-26 -2,2 -13,55 -24,118 -11,63 -39,198 -60,300 -115,535 -160,943 -163,1484 -2,271 0,286 72,469 43,111 51,124 124,200 90,93 118,141 120,202 1,24 7,44 12,44 10,0 32,11 109,53 29,15 31,15 63,-14 26,-22 43,-29 77,-29 42,0 45,-2 102,-75 33,-41 65,-93 72,-115 9,-25 30,-54 62,-80 50,-42 68,-47 102,-29 17,9 24,6 49,-24 60,-72 126,-70 159,5 31,72 2,182 -75,289 -19,27 -35,51 -35,54 0,3 11,5 24,5 13,0 35,9 50,21 47,37 30,95 -59,189 -33,35 -59,74 -70,107 -15,43 -24,53 -47,58 -15,3 -41,8 -58,11 -23,4 -30,11 -30,29 0,13 -12,46 -26,73 l -26,50 52,71 c 86,119 102,160 107,281 5,114 -4,147 -45,165 -12,5 -25,18 -28,28 -8,24 -51,40 -91,32 -40,-7 -43,7 -14,63 35,67 122,132 177,132 24,0 40,-9 67,-39 z m -1254,-1556 39,-40 6,-485 c 4,-349 11,-544 24,-695 11,-115 17,-212 16,-214 -8,-9 -104,213 -139,319 -97,302 -132,502 -122,705 10,189 35,314 85,429 23,53 27,57 39,40 7,-11 31,-37 52,-59 z m -340,-1233 75,-37 88,-170 c 89,-172 150,-313 240,-550 49,-127 94,-283 85,-292 -3,-2 -35,41 -72,96 -93,141 -219,272 -309,321 -39,22 -81,40 -94,40 -12,0 -30,10 -40,22 -54,67 -85,97 -108,102 -25,7 -26,9 -19,59 3,29 6,144 6,256 l -1,203 37,-6 c 21,-4 71,-23 112,-44 z m 17,-822 c 15,-6 63,-45 107,-88 94,-91 189,-231 276,-406 61,-124 134,-318 129,-345 -2,-8 -20,12 -42,45 -67,101 -169,194 -270,244 -81,41 -95,45 -160,45 -73,-1 -125,-20 -186,-67 l -25,-20 -5,234 -6,233 58,57 c 32,32 58,62 58,68 0,13 31,13 66,0 z M 1843,5588 c 2,-7 0,-21 -5,-31 -14,-27 -1,-66 30,-92 15,-13 42,-48 61,-79 33,-56 33,-56 16,-91 -24,-51 -12,-90 38,-126 25,-18 46,-43 53,-66 7,-19 26,-50 43,-67 17,-18 38,-55 46,-83 8,-28 36,-79 62,-114 41,-56 46,-70 48,-119 1,-37 13,-84 38,-145 33,-83 35,-93 24,-133 -11,-41 -5,-83 19,-147 9,-23 -41,14 -145,108 -75,67 -142,105 -205,113 -56,8 -87,0 -124,-31 l -30,-25 -6,31 c -3,18 -6,63 -6,101 0,39 -5,134 -11,212 -8,103 -8,180 1,286 13,173 14,199 5,357 -4,67 -5,129 -2,138 8,18 43,20 50,3 z m 502,-232 c 44,-9 90,-19 103,-22 21,-4 22,-6 7,-27 -8,-12 -15,-30 -15,-40 0,-24 47,-68 113,-106 38,-22 61,-45 86,-86 34,-56 101,-209 101,-232 0,-6 -15,-16 -33,-22 -43,-15 -77,-46 -77,-72 0,-12 33,-76 72,-143 96,-161 120,-232 153,-456 25,-172 26,-199 20,-395 -10,-336 -46,-553 -127,-770 -51,-139 -75,-186 -132,-257 -117,-146 -280,-225 -392,-188 -116,38 -253,164 -321,296 -42,81 -106,234 -101,240 7,7 26,-13 53,-56 53,-85 115,-158 164,-194 95,-70 231,-96 309,-59 55,26 163,139 210,218 47,80 116,283 137,406 8,46 21,106 29,134 50,175 55,288 15,340 -17,21 -20,34 -14,74 8,57 -8,154 -32,190 -13,20 -17,52 -17,151 -1,123 -2,126 -36,190 -29,56 -34,76 -36,140 -2,89 -36,229 -68,285 -13,22 -31,67 -41,100 -9,33 -26,76 -37,95 -11,19 -32,55 -46,80 -63,113 -113,182 -145,196 -37,17 -33,17 98,-10 z m 2383,-516 c -3,-10 -16,-15 -45,-15 -23,0 -45,-3 -49,-8 -7,-7 -44,20 -44,32 0,3 32,6 70,6 57,0 70,-3 68,-15 z" />
  </g>
  <g
     id="g1724">
    <polygon
       transform="translate(396.9837,13.125013)"
       style="fill:none;stroke:#000000;stroke-width:0.90000075"
       points="313.58294,645.59108 313.58294,634.96115 289.48843,634.96115 289.48843,645.59108 263.9766,645.59108 263.9766,634.96115 239.88209,634.96115 239.88209,645.59108 214.37026,645.59108 214.37026,634.96115 190.27575,634.96115 190.27575,645.59108 164.76391,645.59108 164.76391,634.96115 140.66941,634.96115 140.66941,645.59108 115.15758,645.59108 115.15758,634.96115 91.063067,634.96115 91.063067,645.59108 65.551235,645.59108 65.551235,634.96115 33.484279,634.96115 33.484279,645.59108 0,645.59108 0,613.87846 10.62993,613.87846 10.62993,583.58316 0,583.58316 0,558.07133 10.62993,558.07133 10.62993,533.97682 0,533.97682 0,508.46499 10.62993,508.46499 10.62993,484.37048 0,484.37048 0,458.85865 10.62993,458.85865 10.62993,434.76414 0,434.76414 0,409.25231 10.62993,409.25231 10.62993,385.1578 0,385.1578 0,359.64597 10.62993,359.64597 10.62993,335.55146 0,335.55146 0,310.03963 10.62993,310.03963 10.62993,285.94512 0,285.94512 0,260.43329 10.62993,260.43329 10.62993,236.33878 0,236.33878 0,210.82695 10.62993,210.82695 10.62993,186.73244 0,186.73244 0,161.22061 10.62993,161.22061 10.62993,137.1261 0,137.1261 0,111.61427 10.62993,111.61427 10.62993,87.519757 0,87.519757 0,62.007925 10.62993,62.007925 10.62993,31.712625 0,31.712625 0,0 33.484279,0 33.484279,10.62993 65.551235,10.62993 65.551235,0 91.063067,0 91.063067,10.62993 115.15758,10.62993 115.15758,0 140.66941,0 140.66941,10.62993 164.76391,10.62993 164.76391,0 190.27575,0 190.27575,10.62993 214.37026,10.62993 214.37026,0 239.88209,0 239.88209,10.62993 263.9766,10.62993 263.9766,0 289.48843,0 289.48843,10.62993 313.58294,10.62993 313.58294,0 339.09477,0 339.09477,10.62993 363.18928,10.62993 363.18928,0 388.70111,0 388.70111,10.62993 412.79562,10.62993 412.79562,0 438.30745,0 438.30745,10.62993 470.3744,10.62993 470.3744,0 503.85868,0 503.85868,31.712625 493.22875,31.712625 493.22875,62.007925 503.85868,62.007925 503.85868,87.519757 493.22875,87.519757 493.22875,111.61427 503.85868,111.61427 503.85868,137.1261 493.22875,137.1261 493.22875,161.22061 503.85868,161.22061 503.85868,186.73244 493.22875,186.73244 493.22875,210.82695 503.85868,210.82695 503.85868,236.33878 493.22875,236.33878 493.22875,260.43329 503.85868,260.43329 503.85868,285.94512 493.22875,285.94512 493.22875,310.03963 503.85868,310.03963 503.85868,335.55146 493.22875,335.55146 493.22875,359.64597 503.85868,359.64597 503.85868,385.1578 493.22875,385.1578 493.22875,409.25231 503.85868,409.25231 503.85868,434.76414 493.22875,434.76414 493.22875,458.85865 503.85868,458.85865 503.85868,484.37048 493.22875,484.37048 493.22875,508.46499 503.85868,508.46499 503.85868,533.97682 493.22875,533.97682 493.22875,558.07133 503.85868,558.07133 503.85868,583.58316 493.22875,583.58316 493.22875,613.87846 503.85868,613.87846 503.85868,645.59108 470.3744,645.59108 470.3744,634.96115 438.30745,634.96115 438.30745,645.59108 412.79562,645.59108 412.79562,634.96115 388.70111,634.96115 388.70111,645.59108 363.18928,645.59108 363.18928,634.96115 339.09477,634.96115 339.09477,645.59108 "
       id="polygon1855" />
    <path
       style="vector-effect:none;fill:none;fill-opacity:1;stroke:#000000;stroke-width:0.93750066px;stroke-linecap:butt;stroke-linejoin:miter;stroke-miterlimit:4;stroke-dasharray:none;stroke-dashoffset:0;stroke-opacity:1"
       d="M 35.159617,8.0954551 V 7.8262856 H 60.67145 V 18.456216 H 95.395886 V 7.8262856 H 120.90772 V 18.456216 h 34.72444 V 7.8262856 h 25.51183 V 38.830249 h 10.62993 v 31.712624 h -10.62993 v 24.09451 h 10.62993 v 25.511837 h -10.62993 v 24.09451 h 10.62993 v 25.51183 h -10.62993 v 24.09451 h 10.62993 v 25.51182 h -10.62993 v 24.09451 h 10.62993 v 25.51183 h -10.62993 v 24.0945 h 10.62993 v 25.51185 h -10.62993 v 24.09451 h 10.62993 v 25.51183 h -10.62993 v 24.09451 h 10.62993 v 25.51182 h -10.62993 v 24.09451 h 10.62993 v 25.51183 h -10.62993 v 24.09451 h 10.62993 v 25.51184 h -10.62993 v 24.0945 h 10.62993 v 25.51184 h -10.62993 v 24.09451 h 10.62993 v 31.71261 h -10.62993 v 31.00396 h -25.51183 v -10.62992 h -34.72444 v 10.62992 H 95.395886 V 642.78744 H 60.67145 v 10.62992 H 35.159617"
       id="path1949"
       inkscape:connector-curvature="0" />
    <path
       style="vector-effect:none;fill:none;fill-opacity:1;stroke:#000000;stroke-width:0.93750072px;stroke-linecap:butt;stroke-linejoin:miter;stroke-miterlimit:4;stroke-dasharray:none;stroke-dashoffset:0;stroke-opacity:1"
       d="M 35.155033,653.42192 H 24.499881 v -34.99573"
       id="path1937"
       inkscape:connector-curvature="0" />
    <path
       style="vector-effect:none;fill:none;fill-opacity:1;stroke:#000000;stroke-width:0.93750072px;stroke-linecap:butt;stroke-linejoin:miter;stroke-miterlimit:4;stroke-dasharray:none;stroke-dashoffset:0;stroke-opacity:1"
       d="M 24.49988,618.42618 V 7.7996445 h 12.905089"
       id="path1939"
       inkscape:connector-curvature="0" />
    <path
       style="fill:none;stroke:#000000;stroke-width:0.90000075"
       d="m 44.025631,834.87205 v 0"
       id="path2198"
       inkscape:connector-curvature="0" />
    <path
       style="fill:none;stroke:#000000;stroke-width:0.90000075"
       d="m 11.610752,799.90223 h -0.36074 v -36.14176 h 10.62993 V 739.66596 H 11.250012 V 703.5242 h 10.62993 V 678.72102 H 44.02563 V 668.0911 h 33.484279 v 10.62992 H 101.60442 V 668.0911 h 25.51183 v 10.62992 h 24.09451 V 668.0911 h 25.51183 v 10.62992 H 200.8171 V 668.0911 h 25.51183 v 10.62992 h 24.09451 V 668.0911 h 25.51183 v 10.62992 h 24.0945 V 668.0911 h 25.51184 v 0 10.62992 h 24.09451 V 668.0911 h 25.51183 v 10.62992 h 24.09451 V 668.0911 h 25.51183 v 10.62992 H 448.8488 V 668.0911 h 33.48427 v 10.62992 h 22.14569 v 24.80318 h 10.62993 v 36.14176 h -10.62993 v 24.09451 h 10.62993 v 36.14176 h -10.62993 v 24.80316 h -0.4468"
       id="path2031"
       inkscape:connector-curvature="0" />
    <g
       transform="translate(11.250012,668.0911)"
       id="g2076"
       style="opacity:1;vector-effect:none;fill:none;fill-opacity:1;stroke:#000000;stroke-width:0.93750072px;stroke-linecap:butt;stroke-linejoin:miter;stroke-miterlimit:4;stroke-dasharray:none;stroke-dashoffset:0;stroke-opacity:1" />
    <path
       style="fill:none;stroke:#000000;stroke-width:0.97955877px;stroke-linecap:butt;stroke-linejoin:miter;stroke-opacity:1"
       d="M 21.882033,825.1417 V 799.90393 H 10.813839"
       inkscape:connector-curvature="0"
       id="path2064" />
    <path
       style="fill:none;stroke:#000000;stroke-width:0.93750072px;stroke-linecap:butt;stroke-linejoin:miter;stroke-opacity:1"
       d="M 75.937045,835.33534 H 483.516"
       id="path2123"
       inkscape:connector-curvature="0" />
    <path
       style="fill:none;stroke:#000000;stroke-width:0.93750072px;stroke-linecap:butt;stroke-linejoin:miter;stroke-opacity:1"
       d="M 42.677974,835.3408 H 84.199286"
       id="path2200"
       inkscape:connector-curvature="0" />
    <path
       style="fill:none;stroke:#000000;stroke-width:0.93750066px;stroke-linecap:butt;stroke-linejoin:miter;stroke-opacity:1"
       d="m 504.47689,823.07879 v 12.0153"
       id="path2202"
       inkscape:connector-curvature="0" />
    <path
       style="fill:none;stroke:#000000;stroke-width:0.93750072px;stroke-linecap:butt;stroke-linejoin:miter;stroke-opacity:1"
       d="m 481.56496,835.3427 h 23.36769"
       id="path2207"
       inkscape:connector-curvature="0" />
    <path
       style="vector-effect:none;fill:none;fill-opacity:1;stroke:#000000;stroke-width:0.93750066px;stroke-linecap:butt;stroke-linejoin:miter;stroke-miterlimit:4;stroke-dasharray:none;stroke-dashoffset:0;stroke-opacity:1"
       d="m 368.13491,11.519185 v -0.269169 h -25.51183 v 10.62993 h -34.72444 v -10.62993 h -25.51183 v 10.62993 h -34.72444 v -10.62993 h -25.51183 v 31.003963 h -10.62993 v 31.712624 h 10.62993 v 24.09451 h -10.62993 v 25.511837 h 10.62993 v 24.09451 h -10.62993 v 25.51183 h 10.62993 v 24.09451 h -10.62993 v 25.51182 h 10.62993 v 24.09451 h -10.62993 v 25.51183 h 10.62993 v 24.0945 h -10.62993 v 25.51185 h 10.62993 v 24.09451 h -10.62993 v 25.51183 h 10.62993 v 24.09451 h -10.62993 v 25.51182 h 10.62993 v 24.09451 h -10.62993 v 25.51183 h 10.62993 v 24.09451 h -10.62993 v 25.51184 h 10.62993 v 24.0945 h -10.62993 v 25.51184 h 10.62993 v 24.09451 h -10.62993 v 31.71261 h 10.62993 v 31.00396 h 25.51183 v -10.62992 h 34.72444 v 10.62992 h 25.51183 v -10.62992 h 34.72444 v 10.62992 h 25.51183"
       id="path1949-5"
       inkscape:connector-curvature="0" />
    <path
       style="vector-effect:none;fill:none;fill-opacity:1;stroke:#000000;stroke-width:0.93750072px;stroke-linecap:butt;stroke-linejoin:miter;stroke-miterlimit:4;stroke-dasharray:none;stroke-dashoffset:0;stroke-opacity:1"
       d="m 368.13949,656.84565 h 10.65516 v -34.99573"
       id="path1937-6"
       inkscape:connector-curvature="0" />
    <path
       style="vector-effect:none;fill:none;fill-opacity:1;stroke:#000000;stroke-width:0.93750072px;stroke-linecap:butt;stroke-linejoin:miter;stroke-miterlimit:4;stroke-dasharray:none;stroke-dashoffset:0;stroke-opacity:1"
       d="M 378.79465,621.84991 V 11.223375 h -12.90509"
       id="path1939-2"
       inkscape:connector-curvature="0" />
    <path
       inkscape:connector-curvature="0"
       id="path2179"
       d="m 21.879942,824.70539 v 10.37159"
       style="fill:none;stroke:#000000;stroke-width:0.93750072px;stroke-linecap:butt;stroke-linejoin:miter;stroke-opacity:1" />
    <path
       inkscape:connector-curvature="0"
       id="path2183"
       d="M 44.02563,835.33532 H 21.416033"
       style="fill:none;stroke:#000000;stroke-width:0.94301552px;stroke-linecap:butt;stroke-linejoin:miter;stroke-opacity:1" />
    <path
       inkscape:connector-curvature="0"
       id="path2179-2"
       d="m 537.4248,824.70367 v 10.37159"
       style="fill:none;stroke:#000000;stroke-width:0.93750072px;stroke-linecap:butt;stroke-linejoin:miter;stroke-opacity:1" />
    <path
       inkscape:connector-curvature="0"
       id="path2207-1"
       d="m 997.75202,834.01517 h 23.36768"
       style="fill:none;stroke:#000000;stroke-width:0.93750072px;stroke-linecap:butt;stroke-linejoin:miter;stroke-opacity:1" />
    <path
       inkscape:connector-curvature="0"
       id="path2202-6"
       d="m 1020.6621,821.78422 v 11.9677"
       style="fill:none;stroke:#000000;stroke-width:0.93564153px;stroke-linecap:butt;stroke-linejoin:miter;stroke-opacity:1" />
    <path
       inkscape:connector-curvature="0"
       id="path2200-3"
       d="m 557.31962,834.00594 h 34.98453"
       style="fill:none;stroke:#000000;stroke-width:0.93789351;stroke-linecap:butt;stroke-linejoin:miter;stroke-miterlimit:4;stroke-dasharray:none;stroke-opacity:1" />
    <path
       inkscape:connector-curvature="0"
       id="path2123-7"
       d="M 592.1241,834.00781 H 999.70306"
       style="fill:none;stroke:#000000;stroke-width:0.93750072px;stroke-linecap:butt;stroke-linejoin:miter;stroke-opacity:1" />
    <path
       id="path2064-9"
       inkscape:connector-curvature="0"
       d="M 538.06909,823.81417 V 798.5764 H 527.0009"
       style="fill:none;stroke:#000000;stroke-width:0.97955877px;stroke-linecap:butt;stroke-linejoin:miter;stroke-opacity:1" />
    <g
       style="opacity:1;vector-effect:none;fill:none;fill-opacity:1;stroke:#000000;stroke-width:0.93750072px;stroke-linecap:butt;stroke-linejoin:miter;stroke-miterlimit:4;stroke-dasharray:none;stroke-dashoffset:0;stroke-opacity:1"
       id="g2076-8"
       transform="translate(527.43707,666.76357)" />
    <path
       inkscape:connector-curvature="0"
       id="path2031-2"
       d="m 527.79781,798.5747 h -0.36074 V 762.43294 H 538.067 V 738.33843 H 527.43707 V 702.19667 H 538.067 v -24.80318 h 22.14569 v -10.62992 h 33.48428 v 10.62992 h 24.09451 v -10.62992 h 25.51183 v 10.62992 h 24.09451 v -10.62992 h 25.51183 v 10.62992 h 24.09451 v -10.62992 h 25.51183 v 10.62992 h 24.09451 v -10.62992 h 25.51183 v 10.62992 h 24.0945 v -10.62992 h 25.51184 v 0 10.62992 h 24.09451 v -10.62992 h 25.51183 v 10.62992 h 24.09451 v -10.62992 h 25.51183 v 10.62992 h 24.09451 v -10.62992 h 33.48427 v 10.62992 h 22.14567 v 24.80318 h 10.63 v 36.14176 h -10.63 v 24.09451 h 10.63 v 36.14176 h -10.63 v 24.80316 h -0.4468"
       style="fill:none;stroke:#000000;stroke-width:0.93750072;stroke-miterlimit:4;stroke-dasharray:none" />
    <path
       id="path2198-2"
       inkscape:connector-curvature="0"
       d="m 560.21269,833.54452 v 0"
       style="fill:none;stroke:#000000;stroke-width:0.90000075" />
    <path
       inkscape:connector-curvature="0"
       id="path2183-9"
       d="m 559.57049,835.3336 h -22.6096"
       style="fill:none;stroke:#000000;stroke-width:0.94301546px;stroke-linecap:butt;stroke-linejoin:miter;stroke-opacity:1" />
  </g>
  <g
     id="g1658"
     transform="translate(10.037921,-7.2920445)">
    <circle
       r="1.697809"
       cy="254.13748"
       cx="643.23834"
       id="path1443"
       style="opacity:0.92000002;vector-effect:none;fill:#00ff00;fill-opacity:1;stroke:none;stroke-width:0.0440297;stroke-linecap:butt;stroke-linejoin:miter;stroke-miterlimit:4;stroke-dasharray:none;stroke-dashoffset:0;stroke-opacity:1" />
    <circle
       r="1.6978089"
       cy="254.0609"
       cx="650.62549"
       id="path1443-3"
       style="opacity:0.92000002;vector-effect:none;fill:#00ff00;fill-opacity:1;stroke:none;stroke-width:0.04402971;stroke-linecap:butt;stroke-linejoin:miter;stroke-miterlimit:4;stroke-dasharray:none;stroke-dashoffset:0;stroke-opacity:1" />
    <circle
       r="1.6978089"
       cy="254.0609"
       cx="658.12549"
       id="path1443-5"
       style="opacity:0.92000002;vector-effect:none;fill:#00ff00;fill-opacity:1;stroke:none;stroke-width:0.04402971;stroke-linecap:butt;stroke-linejoin:miter;stroke-miterlimit:4;stroke-dasharray:none;stroke-dashoffset:0;stroke-opacity:1" />
    <circle
       r="1.6978089"
       cy="254.0609"
       cx="665.62549"
       id="path1443-6"
       style="opacity:0.92000002;vector-effect:none;fill:#00ff00;fill-opacity:1;stroke:none;stroke-width:0.04402971;stroke-linecap:butt;stroke-linejoin:miter;stroke-miterlimit:4;stroke-dasharray:none;stroke-dashoffset:0;stroke-opacity:1" />
    <circle
       r="1.6978089"
       cy="254.0609"
       cx="673.12549"
       id="path1443-2"
       style="opacity:0.92000002;vector-effect:none;fill:#00ff00;fill-opacity:1;stroke:none;stroke-width:0.04402971;stroke-linecap:butt;stroke-linejoin:miter;stroke-miterlimit:4;stroke-dasharray:none;stroke-dashoffset:0;stroke-opacity:1" />
    <circle
       r="1.6978089"
       cy="261.36481"
       cx="643.41632"
       id="path1443-1"
       style="opacity:0.92000002;vector-effect:none;fill:#00ff00;fill-opacity:1;stroke:none;stroke-width:0.04402971;stroke-linecap:butt;stroke-linejoin:miter;stroke-miterlimit:4;stroke-dasharray:none;stroke-dashoffset:0;stroke-opacity:1" />
    <circle
       r="1.6978089"
       cy="261.28824"
       cx="650.80347"
       id="path1443-3-2"
       style="opacity:0.92000002;vector-effect:none;fill:#00ff00;fill-opacity:1;stroke:none;stroke-width:0.04402971;stroke-linecap:butt;stroke-linejoin:miter;stroke-miterlimit:4;stroke-dasharray:none;stroke-dashoffset:0;stroke-opacity:1" />
    <circle
       r="1.6978089"
       cy="261.28824"
       cx="658.30347"
       id="path1443-5-7"
       style="opacity:0.92000002;vector-effect:none;fill:#00ff00;fill-opacity:1;stroke:none;stroke-width:0.04402971;stroke-linecap:butt;stroke-linejoin:miter;stroke-miterlimit:4;stroke-dasharray:none;stroke-dashoffset:0;stroke-opacity:1" />
    <circle
       r="1.6978089"
       cy="261.28824"
       cx="665.80347"
       id="path1443-6-0"
       style="opacity:0.92000002;vector-effect:none;fill:#00ff00;fill-opacity:1;stroke:none;stroke-width:0.04402971;stroke-linecap:butt;stroke-linejoin:miter;stroke-miterlimit:4;stroke-dasharray:none;stroke-dashoffset:0;stroke-opacity:1" />
    <circle
       r="1.6978089"
       cy="261.28824"
       cx="673.30347"
       id="path1443-2-9"
       style="opacity:0.92000002;vector-effect:none;fill:#00ff00;fill-opacity:1;stroke:none;stroke-width:0.04402971;stroke-linecap:butt;stroke-linejoin:miter;stroke-miterlimit:4;stroke-dasharray:none;stroke-dashoffset:0;stroke-opacity:1" />
    <circle
       r="1.6978089"
       cy="268.8923"
       cx="643.50159"
       id="path1443-36"
       style="opacity:0.92000002;vector-effect:none;fill:#00ff00;fill-opacity:1;stroke:none;stroke-width:0.04402971;stroke-linecap:butt;stroke-linejoin:miter;stroke-miterlimit:4;stroke-dasharray:none;stroke-dashoffset:0;stroke-opacity:1" />
    <circle
       r="1.6978089"
       cy="268.8157"
       cx="650.88873"
       id="path1443-3-0"
       style="opacity:0.92000002;vector-effect:none;fill:#00ff00;fill-opacity:1;stroke:none;stroke-width:0.04402971;stroke-linecap:butt;stroke-linejoin:miter;stroke-miterlimit:4;stroke-dasharray:none;stroke-dashoffset:0;stroke-opacity:1" />
    <circle
       r="1.6978089"
       cy="268.8157"
       cx="658.38873"
       id="path1443-5-6"
       style="opacity:0.92000002;vector-effect:none;fill:#00ff00;fill-opacity:1;stroke:none;stroke-width:0.04402971;stroke-linecap:butt;stroke-linejoin:miter;stroke-miterlimit:4;stroke-dasharray:none;stroke-dashoffset:0;stroke-opacity:1" />
    <circle
       r="1.6978089"
       cy="268.8157"
       cx="665.88873"
       id="path1443-6-2"
       style="opacity:0.92000002;vector-effect:none;fill:#00ff00;fill-opacity:1;stroke:none;stroke-width:0.04402971;stroke-linecap:butt;stroke-linejoin:miter;stroke-miterlimit:4;stroke-dasharray:none;stroke-dashoffset:0;stroke-opacity:1" />
    <circle
       r="1.6978089"
       cy="268.8157"
       cx="673.38873"
       id="path1443-2-6"
       style="opacity:0.92000002;vector-effect:none;fill:#00ff00;fill-opacity:1;stroke:none;stroke-width:0.04402971;stroke-linecap:butt;stroke-linejoin:miter;stroke-miterlimit:4;stroke-dasharray:none;stroke-dashoffset:0;stroke-opacity:1" />
    <circle
       r="1.6978089"
       cy="276.11963"
       cx="643.67957"
       id="path1443-1-1"
       style="opacity:0.92000002;vector-effect:none;fill:#00ff00;fill-opacity:1;stroke:none;stroke-width:0.04402971;stroke-linecap:butt;stroke-linejoin:miter;stroke-miterlimit:4;stroke-dasharray:none;stroke-dashoffset:0;stroke-opacity:1" />
    <circle
       r="1.6978089"
       cy="276.04306"
       cx="651.06671"
       id="path1443-3-2-8"
       style="opacity:0.92000002;vector-effect:none;fill:#00ff00;fill-opacity:1;stroke:none;stroke-width:0.04402971;stroke-linecap:butt;stroke-linejoin:miter;stroke-miterlimit:4;stroke-dasharray:none;stroke-dashoffset:0;stroke-opacity:1" />
    <circle
       r="1.6978089"
       cy="276.04306"
       cx="658.56671"
       id="path1443-5-7-7"
       style="opacity:0.92000002;vector-effect:none;fill:#00ff00;fill-opacity:1;stroke:none;stroke-width:0.04402971;stroke-linecap:butt;stroke-linejoin:miter;stroke-miterlimit:4;stroke-dasharray:none;stroke-dashoffset:0;stroke-opacity:1" />
    <circle
       r="1.6978089"
       cy="276.04306"
       cx="666.06671"
       id="path1443-6-0-9"
       style="opacity:0.92000002;vector-effect:none;fill:#00ff00;fill-opacity:1;stroke:none;stroke-width:0.04402971;stroke-linecap:butt;stroke-linejoin:miter;stroke-miterlimit:4;stroke-dasharray:none;stroke-dashoffset:0;stroke-opacity:1" />
    <circle
       r="1.6978089"
       cy="276.04306"
       cx="673.56671"
       id="path1443-2-9-2"
       style="opacity:0.92000002;vector-effect:none;fill:#00ff00;fill-opacity:1;stroke:none;stroke-width:0.04402971;stroke-linecap:butt;stroke-linejoin:miter;stroke-miterlimit:4;stroke-dasharray:none;stroke-dashoffset:0;stroke-opacity:1" />
    <circle
       r="1.6978089"
       cy="283.60071"
       cx="643.66345"
       id="path1443-0"
       style="opacity:0.92000002;vector-effect:none;fill:#00ff00;fill-opacity:1;stroke:none;stroke-width:0.04402971;stroke-linecap:butt;stroke-linejoin:miter;stroke-miterlimit:4;stroke-dasharray:none;stroke-dashoffset:0;stroke-opacity:1" />
    <circle
       r="1.6978089"
       cy="283.52414"
       cx="651.0506"
       id="path1443-3-23"
       style="opacity:0.92000002;vector-effect:none;fill:#00ff00;fill-opacity:1;stroke:none;stroke-width:0.04402971;stroke-linecap:butt;stroke-linejoin:miter;stroke-miterlimit:4;stroke-dasharray:none;stroke-dashoffset:0;stroke-opacity:1" />
    <circle
       r="1.6978089"
       cy="283.52414"
       cx="658.5506"
       id="path1443-5-75"
       style="opacity:0.92000002;vector-effect:none;fill:#00ff00;fill-opacity:1;stroke:none;stroke-width:0.04402971;stroke-linecap:butt;stroke-linejoin:miter;stroke-miterlimit:4;stroke-dasharray:none;stroke-dashoffset:0;stroke-opacity:1" />
    <circle
       r="1.6978089"
       cy="283.52414"
       cx="666.0506"
       id="path1443-6-9"
       style="opacity:0.92000002;vector-effect:none;fill:#00ff00;fill-opacity:1;stroke:none;stroke-width:0.04402971;stroke-linecap:butt;stroke-linejoin:miter;stroke-miterlimit:4;stroke-dasharray:none;stroke-dashoffset:0;stroke-opacity:1" />
    <circle
       r="1.6978089"
       cy="283.52414"
       cx="673.5506"
       id="path1443-2-2"
       style="opacity:0.92000002;vector-effect:none;fill:#00ff00;fill-opacity:1;stroke:none;stroke-width:0.04402971;stroke-linecap:butt;stroke-linejoin:miter;stroke-miterlimit:4;stroke-dasharray:none;stroke-dashoffset:0;stroke-opacity:1" />
    <circle
       r="1.6978089"
       cy="290.82803"
       cx="643.84143"
       id="path1443-1-2"
       style="opacity:0.92000002;vector-effect:none;fill:#00ff00;fill-opacity:1;stroke:none;stroke-width:0.04402971;stroke-linecap:butt;stroke-linejoin:miter;stroke-miterlimit:4;stroke-dasharray:none;stroke-dashoffset:0;stroke-opacity:1" />
    <circle
       r="1.6978089"
       cy="290.75146"
       cx="651.22858"
       id="path1443-3-2-89"
       style="opacity:0.92000002;vector-effect:none;fill:#00ff00;fill-opacity:1;stroke:none;stroke-width:0.04402971;stroke-linecap:butt;stroke-linejoin:miter;stroke-miterlimit:4;stroke-dasharray:none;stroke-dashoffset:0;stroke-opacity:1" />
    <circle
       r="1.6978089"
       cy="290.75146"
       cx="658.72858"
       id="path1443-5-7-73"
       style="opacity:0.92000002;vector-effect:none;fill:#00ff00;fill-opacity:1;stroke:none;stroke-width:0.04402971;stroke-linecap:butt;stroke-linejoin:miter;stroke-miterlimit:4;stroke-dasharray:none;stroke-dashoffset:0;stroke-opacity:1" />
    <circle
       r="1.6978089"
       cy="290.75146"
       cx="666.22858"
       id="path1443-6-0-6"
       style="opacity:0.92000002;vector-effect:none;fill:#00ff00;fill-opacity:1;stroke:none;stroke-width:0.04402971;stroke-linecap:butt;stroke-linejoin:miter;stroke-miterlimit:4;stroke-dasharray:none;stroke-dashoffset:0;stroke-opacity:1" />
    <circle
       r="1.6978089"
       cy="290.75146"
       cx="673.72858"
       id="path1443-2-9-1"
       style="opacity:0.92000002;vector-effect:none;fill:#00ff00;fill-opacity:1;stroke:none;stroke-width:0.04402971;stroke-linecap:butt;stroke-linejoin:miter;stroke-miterlimit:4;stroke-dasharray:none;stroke-dashoffset:0;stroke-opacity:1" />
    <circle
       r="1.6978089"
       cy="254.12321"
       cx="635.71082"
       id="path1443-29"
       style="opacity:0.92000002;vector-effect:none;fill:#00ff00;fill-opacity:1;stroke:none;stroke-width:0.04402971;stroke-linecap:butt;stroke-linejoin:miter;stroke-miterlimit:4;stroke-dasharray:none;stroke-dashoffset:0;stroke-opacity:1" />
    <circle
       r="1.6978089"
       cy="261.35056"
       cx="635.88879"
       id="path1443-1-3"
       style="opacity:0.92000002;vector-effect:none;fill:#00ff00;fill-opacity:1;stroke:none;stroke-width:0.04402971;stroke-linecap:butt;stroke-linejoin:miter;stroke-miterlimit:4;stroke-dasharray:none;stroke-dashoffset:0;stroke-opacity:1" />
    <circle
       r="1.6978089"
       cy="268.87802"
       cx="635.97406"
       id="path1443-36-1"
       style="opacity:0.92000002;vector-effect:none;fill:#00ff00;fill-opacity:1;stroke:none;stroke-width:0.04402971;stroke-linecap:butt;stroke-linejoin:miter;stroke-miterlimit:4;stroke-dasharray:none;stroke-dashoffset:0;stroke-opacity:1" />
    <circle
       r="1.6978089"
       cy="276.10535"
       cx="636.15204"
       id="path1443-1-1-9"
       style="opacity:0.92000002;vector-effect:none;fill:#00ff00;fill-opacity:1;stroke:none;stroke-width:0.04402971;stroke-linecap:butt;stroke-linejoin:miter;stroke-miterlimit:4;stroke-dasharray:none;stroke-dashoffset:0;stroke-opacity:1" />
    <circle
       r="1.6978089"
       cy="283.58643"
       cx="636.13593"
       id="path1443-0-4"
       style="opacity:0.92000002;vector-effect:none;fill:#00ff00;fill-opacity:1;stroke:none;stroke-width:0.04402971;stroke-linecap:butt;stroke-linejoin:miter;stroke-miterlimit:4;stroke-dasharray:none;stroke-dashoffset:0;stroke-opacity:1" />
    <circle
       r="1.6978089"
       cy="290.81375"
       cx="636.3139"
       id="path1443-1-2-7"
       style="opacity:0.92000002;vector-effect:none;fill:#00ff00;fill-opacity:1;stroke:none;stroke-width:0.04402971;stroke-linecap:butt;stroke-linejoin:miter;stroke-miterlimit:4;stroke-dasharray:none;stroke-dashoffset:0;stroke-opacity:1" />
  </g>
</svg>
