<?xml version="1.0" encoding="utf-8"?>
<!DOCTYPE eagle SYSTEM "eagle.dtd">
<eagle version="9.2.2">
<drawing>
<settings>
<setting alwaysvectorfont="no"/>
<setting keepoldvectorfont="yes"/>
<setting verticaltext="up"/>
</settings>
<grid distance="0.005" unitdist="inch" unit="mil" style="lines" multiple="4" display="no" altdistance="0.005" altunitdist="inch" altunit="inch"/>
<layers>
<layer number="1" name="Top" color="4" fill="1" visible="yes" active="yes"/>
<layer number="2" name="Route2" color="1" fill="3" visible="no" active="no"/>
<layer number="3" name="Route3" color="4" fill="3" visible="no" active="no"/>
<layer number="4" name="Route4" color="1" fill="4" visible="no" active="no"/>
<layer number="5" name="Route5" color="4" fill="4" visible="no" active="no"/>
<layer number="6" name="Route6" color="1" fill="8" visible="no" active="no"/>
<layer number="7" name="Route7" color="4" fill="8" visible="no" active="no"/>
<layer number="8" name="Route8" color="1" fill="2" visible="no" active="no"/>
<layer number="9" name="Route9" color="4" fill="2" visible="no" active="no"/>
<layer number="10" name="Route10" color="1" fill="7" visible="no" active="no"/>
<layer number="11" name="Route11" color="4" fill="7" visible="no" active="no"/>
<layer number="12" name="Route12" color="1" fill="5" visible="no" active="no"/>
<layer number="13" name="Route13" color="4" fill="5" visible="no" active="no"/>
<layer number="14" name="Route14" color="1" fill="6" visible="no" active="no"/>
<layer number="15" name="Route15" color="4" fill="6" visible="no" active="no"/>
<layer number="16" name="Bottom" color="1" fill="1" visible="yes" active="yes"/>
<layer number="17" name="Pads" color="2" fill="1" visible="yes" active="yes"/>
<layer number="18" name="Vias" color="2" fill="1" visible="yes" active="yes"/>
<layer number="19" name="Unrouted" color="6" fill="1" visible="yes" active="yes"/>
<layer number="20" name="Dimension" color="15" fill="1" visible="yes" active="yes"/>
<layer number="21" name="tPlace" color="7" fill="1" visible="yes" active="yes"/>
<layer number="22" name="bPlace" color="7" fill="1" visible="yes" active="yes"/>
<layer number="23" name="tOrigins" color="15" fill="1" visible="yes" active="yes"/>
<layer number="24" name="bOrigins" color="15" fill="1" visible="yes" active="yes"/>
<layer number="25" name="tNames" color="7" fill="1" visible="yes" active="yes"/>
<layer number="26" name="bNames" color="7" fill="1" visible="yes" active="yes"/>
<layer number="27" name="tValues" color="7" fill="1" visible="yes" active="yes"/>
<layer number="28" name="bValues" color="7" fill="1" visible="yes" active="yes"/>
<layer number="29" name="tStop" color="7" fill="3" visible="yes" active="yes"/>
<layer number="30" name="bStop" color="7" fill="6" visible="yes" active="yes"/>
<layer number="31" name="tCream" color="7" fill="4" visible="yes" active="yes"/>
<layer number="32" name="bCream" color="7" fill="5" visible="yes" active="yes"/>
<layer number="33" name="tFinish" color="6" fill="3" visible="yes" active="yes"/>
<layer number="34" name="bFinish" color="6" fill="6" visible="yes" active="yes"/>
<layer number="35" name="tGlue" color="7" fill="4" visible="yes" active="yes"/>
<layer number="36" name="bGlue" color="7" fill="5" visible="yes" active="yes"/>
<layer number="37" name="tTest" color="7" fill="1" visible="yes" active="yes"/>
<layer number="38" name="bTest" color="7" fill="1" visible="yes" active="yes"/>
<layer number="39" name="tKeepout" color="4" fill="11" visible="yes" active="yes"/>
<layer number="40" name="bKeepout" color="1" fill="11" visible="yes" active="yes"/>
<layer number="41" name="tRestrict" color="4" fill="10" visible="yes" active="yes"/>
<layer number="42" name="bRestrict" color="1" fill="10" visible="yes" active="yes"/>
<layer number="43" name="vRestrict" color="2" fill="10" visible="yes" active="yes"/>
<layer number="44" name="Drills" color="7" fill="1" visible="yes" active="yes"/>
<layer number="45" name="Holes" color="7" fill="1" visible="yes" active="yes"/>
<layer number="46" name="Milling" color="3" fill="1" visible="yes" active="yes"/>
<layer number="47" name="Measures" color="7" fill="1" visible="yes" active="yes"/>
<layer number="48" name="Document" color="7" fill="1" visible="yes" active="yes"/>
<layer number="49" name="Reference" color="7" fill="1" visible="yes" active="yes"/>
<layer number="50" name="dxf" color="7" fill="1" visible="no" active="no"/>
<layer number="51" name="tDocu" color="7" fill="1" visible="yes" active="yes"/>
<layer number="52" name="bDocu" color="7" fill="1" visible="yes" active="yes"/>
<layer number="53" name="tGND_GNDA" color="7" fill="9" visible="no" active="no"/>
<layer number="54" name="bGND_GNDA" color="1" fill="9" visible="no" active="no"/>
<layer number="56" name="wert" color="7" fill="1" visible="no" active="no"/>
<layer number="57" name="tCAD" color="7" fill="1" visible="no" active="no"/>
<layer number="59" name="tCarbon" color="7" fill="1" visible="no" active="no"/>
<layer number="60" name="bCarbon" color="7" fill="1" visible="no" active="no"/>
<layer number="90" name="Modules" color="5" fill="1" visible="no" active="no"/>
<layer number="91" name="Nets" color="2" fill="1" visible="no" active="no"/>
<layer number="92" name="Busses" color="1" fill="1" visible="no" active="no"/>
<layer number="93" name="Pins" color="2" fill="1" visible="no" active="no"/>
<layer number="94" name="Symbols" color="4" fill="1" visible="no" active="no"/>
<layer number="95" name="Names" color="7" fill="1" visible="no" active="no"/>
<layer number="96" name="Values" color="7" fill="1" visible="no" active="no"/>
<layer number="97" name="Info" color="7" fill="1" visible="no" active="no"/>
<layer number="98" name="Guide" color="6" fill="1" visible="no" active="no"/>
<layer number="99" name="SpiceOrder" color="7" fill="1" visible="no" active="no"/>
<layer number="100" name="Muster" color="7" fill="1" visible="no" active="no"/>
<layer number="101" name="Patch_Top" color="12" fill="4" visible="yes" active="yes"/>
<layer number="102" name="Vscore" color="7" fill="1" visible="yes" active="yes"/>
<layer number="103" name="tMap" color="7" fill="1" visible="yes" active="yes"/>
<layer number="104" name="Name" color="7" fill="1" visible="yes" active="yes"/>
<layer number="105" name="tPlate" color="7" fill="1" visible="yes" active="yes"/>
<layer number="106" name="bPlate" color="7" fill="1" visible="yes" active="yes"/>
<layer number="107" name="Crop" color="7" fill="1" visible="yes" active="yes"/>
<layer number="108" name="tplace-old" color="10" fill="1" visible="yes" active="yes"/>
<layer number="109" name="ref-old" color="11" fill="1" visible="yes" active="yes"/>
<layer number="110" name="fp0" color="7" fill="1" visible="yes" active="yes"/>
<layer number="111" name="LPC17xx" color="7" fill="1" visible="yes" active="yes"/>
<layer number="112" name="tSilk" color="7" fill="1" visible="yes" active="yes"/>
<layer number="113" name="IDFDebug" color="7" fill="1" visible="yes" active="yes"/>
<layer number="116" name="Patch_BOT" color="9" fill="4" visible="yes" active="yes"/>
<layer number="118" name="Rect_Pads" color="7" fill="1" visible="yes" active="yes"/>
<layer number="121" name="_tsilk" color="7" fill="1" visible="yes" active="yes"/>
<layer number="122" name="_bsilk" color="7" fill="1" visible="yes" active="yes"/>
<layer number="123" name="tTestmark" color="7" fill="1" visible="yes" active="yes"/>
<layer number="124" name="bTestmark" color="7" fill="1" visible="yes" active="yes"/>
<layer number="125" name="_tNames" color="7" fill="1" visible="yes" active="yes"/>
<layer number="126" name="_bNames" color="7" fill="1" visible="yes" active="yes"/>
<layer number="127" name="_tValues" color="7" fill="1" visible="yes" active="yes"/>
<layer number="128" name="_bValues" color="7" fill="1" visible="yes" active="yes"/>
<layer number="129" name="Mask" color="7" fill="1" visible="yes" active="yes"/>
<layer number="131" name="tAdjust" color="7" fill="1" visible="yes" active="yes"/>
<layer number="132" name="bAdjust" color="7" fill="1" visible="yes" active="yes"/>
<layer number="144" name="Drill_legend" color="7" fill="1" visible="yes" active="yes"/>
<layer number="150" name="Notes" color="7" fill="1" visible="yes" active="yes"/>
<layer number="151" name="HeatSink" color="7" fill="1" visible="yes" active="yes"/>
<layer number="152" name="_bDocu" color="7" fill="1" visible="yes" active="yes"/>
<layer number="153" name="FabDoc1" color="7" fill="1" visible="yes" active="yes"/>
<layer number="154" name="FabDoc2" color="7" fill="1" visible="yes" active="yes"/>
<layer number="155" name="FabDoc3" color="7" fill="1" visible="yes" active="yes"/>
<layer number="199" name="Contour" color="7" fill="1" visible="yes" active="yes"/>
<layer number="200" name="200bmp" color="1" fill="10" visible="yes" active="yes"/>
<layer number="201" name="201bmp" color="2" fill="10" visible="yes" active="yes"/>
<layer number="202" name="202bmp" color="3" fill="10" visible="yes" active="yes"/>
<layer number="203" name="203bmp" color="4" fill="10" visible="yes" active="yes"/>
<layer number="204" name="204bmp" color="5" fill="10" visible="yes" active="yes"/>
<layer number="205" name="205bmp" color="6" fill="10" visible="yes" active="yes"/>
<layer number="206" name="206bmp" color="7" fill="10" visible="yes" active="yes"/>
<layer number="207" name="207bmp" color="8" fill="10" visible="yes" active="yes"/>
<layer number="208" name="208bmp" color="9" fill="10" visible="yes" active="yes"/>
<layer number="209" name="209bmp" color="7" fill="1" visible="yes" active="yes"/>
<layer number="210" name="210bmp" color="7" fill="1" visible="yes" active="yes"/>
<layer number="211" name="211bmp" color="7" fill="1" visible="yes" active="yes"/>
<layer number="212" name="212bmp" color="7" fill="1" visible="yes" active="yes"/>
<layer number="213" name="213bmp" color="7" fill="1" visible="yes" active="yes"/>
<layer number="214" name="214bmp" color="7" fill="1" visible="yes" active="yes"/>
<layer number="215" name="215bmp" color="7" fill="1" visible="yes" active="yes"/>
<layer number="216" name="216bmp" color="7" fill="1" visible="yes" active="yes"/>
<layer number="217" name="217bmp" color="18" fill="1" visible="no" active="no"/>
<layer number="218" name="218bmp" color="19" fill="1" visible="no" active="no"/>
<layer number="219" name="219bmp" color="20" fill="1" visible="no" active="no"/>
<layer number="220" name="220bmp" color="21" fill="1" visible="no" active="no"/>
<layer number="221" name="221bmp" color="22" fill="1" visible="no" active="no"/>
<layer number="222" name="222bmp" color="23" fill="1" visible="no" active="no"/>
<layer number="223" name="223bmp" color="24" fill="1" visible="no" active="no"/>
<layer number="224" name="224bmp" color="25" fill="1" visible="no" active="no"/>
<layer number="225" name="225bmp" color="7" fill="1" visible="yes" active="yes"/>
<layer number="226" name="226bmp" color="7" fill="1" visible="yes" active="yes"/>
<layer number="227" name="227bmp" color="7" fill="1" visible="yes" active="yes"/>
<layer number="228" name="228bmp" color="7" fill="1" visible="yes" active="yes"/>
<layer number="229" name="229bmp" color="7" fill="1" visible="yes" active="yes"/>
<layer number="230" name="230bmp" color="7" fill="1" visible="yes" active="yes"/>
<layer number="231" name="231bmp" color="7" fill="1" visible="yes" active="yes"/>
<layer number="248" name="Housing" color="7" fill="1" visible="yes" active="yes"/>
<layer number="249" name="Edge" color="7" fill="1" visible="yes" active="yes"/>
<layer number="250" name="Descript" color="3" fill="1" visible="no" active="no"/>
<layer number="251" name="SMDround" color="12" fill="11" visible="no" active="no"/>
<layer number="254" name="cooling" color="7" fill="1" visible="yes" active="yes"/>
<layer number="255" name="routoute" color="7" fill="1" visible="yes" active="yes"/>
</layers>
<board>
<plain>
<wire x1="100.33" y1="80.01" x2="0.33" y2="80.01" width="0" layer="20"/>
<wire x1="0.33" y1="80.01" x2="0.33" y2="0.01" width="0" layer="20"/>
<wire x1="0.33" y1="0.01" x2="100.33" y2="0.01" width="0" layer="20"/>
<wire x1="100.33" y1="0.01" x2="100.33" y2="80.01" width="0" layer="20"/>
</plain>
<libraries>
<library name="fab">
<packages>
<package name="SOIC8">
<description>&lt;B&gt;Wide Plastic Gull Wing Small Outline Package&lt;/B&gt;</description>
<wire x1="-2.6" y1="2.25" x2="-2.35" y2="2.5" width="0.1524" layer="21" curve="-90" cap="flat"/>
<wire x1="2.35" y1="2.5" x2="2.6" y2="2.25" width="0.1524" layer="21" curve="-90"/>
<wire x1="2.35" y1="-2.5" x2="2.6" y2="-2.25" width="0.1524" layer="21" curve="90" cap="flat"/>
<wire x1="-2.6" y1="-2.25" x2="-2.35" y2="-2.5" width="0.1524" layer="21" curve="90" cap="flat"/>
<wire x1="2.36" y1="-2.5" x2="-2.34" y2="-2.5" width="0.1524" layer="51"/>
<wire x1="-2.34" y1="2.5" x2="2.36" y2="2.5" width="0.1524" layer="51"/>
<wire x1="-2.21" y1="2.5" x2="-2.34" y2="2.5" width="0.1524" layer="21"/>
<wire x1="-1.59" y1="2.5" x2="-0.95" y2="2.5" width="0.1524" layer="21"/>
<wire x1="-0.32" y1="2.5" x2="0.32" y2="2.5" width="0.1524" layer="21"/>
<wire x1="0.95" y1="2.5" x2="1.59" y2="2.5" width="0.1524" layer="21"/>
<wire x1="2.21" y1="2.5" x2="2.36" y2="2.5" width="0.1524" layer="21"/>
<wire x1="2.2" y1="-2.5" x2="2.33" y2="-2.5" width="0.1524" layer="21"/>
<wire x1="1.59" y1="-2.5" x2="0.94" y2="-2.5" width="0.1524" layer="21"/>
<wire x1="0.32" y1="-2.5" x2="-0.33" y2="-2.5" width="0.1524" layer="21"/>
<wire x1="-0.95" y1="-2.5" x2="-1.59" y2="-2.5" width="0.1524" layer="21"/>
<wire x1="-2.21" y1="-2.5" x2="-2.34" y2="-2.5" width="0.1524" layer="21"/>
<wire x1="-2.6" y1="2.25" x2="-2.6" y2="-2.24" width="0.1524" layer="21"/>
<wire x1="2.6" y1="-2.25" x2="2.6" y2="2.25" width="0.1524" layer="21"/>
<circle x="-1.42" y="-1.115" radius="0.5" width="0.0508" layer="21"/>
<smd name="1" x="-1.905" y="-3.154" dx="0.5" dy="2.2" layer="1"/>
<smd name="2" x="-0.645" y="-3.154" dx="0.5" dy="2.2" layer="1"/>
<smd name="3" x="0.625" y="-3.154" dx="0.5" dy="2.2" layer="1"/>
<smd name="4" x="1.895" y="-3.154" dx="0.5" dy="2.2" layer="1"/>
<smd name="8" x="-1.905" y="3.154" dx="0.5" dy="2.2" layer="1"/>
<smd name="7" x="-0.635" y="3.154" dx="0.5" dy="2.2" layer="1"/>
<smd name="6" x="0.635" y="3.154" dx="0.5" dy="2.2" layer="1"/>
<smd name="5" x="1.905" y="3.154" dx="0.5" dy="2.2" layer="1"/>
<text x="-2.8575" y="-2.159" size="1.27" layer="25" ratio="10" rot="R90">&gt;NAME</text>
<text x="4.064" y="-2.159" size="1.27" layer="27" ratio="10" rot="R90">&gt;VALUE</text>
<rectangle x1="-2.08" y1="2.5" x2="-1.73" y2="3.4" layer="51"/>
<rectangle x1="-0.81" y1="2.5" x2="-0.46" y2="3.4" layer="51"/>
<rectangle x1="0.46" y1="2.5" x2="0.81" y2="3.4" layer="51"/>
<rectangle x1="1.73" y1="2.5" x2="2.08" y2="3.4" layer="51"/>
<rectangle x1="1.72" y1="-3.4" x2="2.07" y2="-2.5" layer="51"/>
<rectangle x1="0.45" y1="-3.4" x2="0.8" y2="-2.5" layer="51"/>
<rectangle x1="-0.82" y1="-3.4" x2="-0.47" y2="-2.5" layer="51"/>
<rectangle x1="-2.08" y1="-3.4" x2="-1.73" y2="-2.5" layer="51"/>
</package>
<package name="R1206FAB">
<wire x1="-2.032" y1="1.016" x2="2.032" y2="1.016" width="0.127" layer="21"/>
<wire x1="2.032" y1="1.016" x2="2.032" y2="-1.016" width="0.127" layer="21"/>
<wire x1="2.032" y1="-1.016" x2="-2.032" y2="-1.016" width="0.127" layer="21"/>
<wire x1="-2.032" y1="-1.016" x2="-2.032" y2="1.016" width="0.127" layer="21"/>
<smd name="1" x="-1.651" y="0" dx="1.27" dy="1.905" layer="1"/>
<smd name="2" x="1.651" y="0" dx="1.27" dy="1.905" layer="1"/>
<text x="-1.778" y="1.27" size="1.016" layer="25" ratio="15">&gt;NAME</text>
<text x="-1.778" y="-2.286" size="1.016" layer="27" ratio="15">&gt;VALUE</text>
</package>
</packages>
</library>
<library name="fablab">
<packages>
<package name="R1206FAB">
<wire x1="-2.032" y1="1.016" x2="2.032" y2="1.016" width="0.127" layer="21"/>
<wire x1="2.032" y1="1.016" x2="2.032" y2="-1.016" width="0.127" layer="21"/>
<wire x1="2.032" y1="-1.016" x2="-2.032" y2="-1.016" width="0.127" layer="21"/>
<wire x1="-2.032" y1="-1.016" x2="-2.032" y2="1.016" width="0.127" layer="21"/>
<smd name="1" x="-1.651" y="0" dx="1.27" dy="1.905" layer="1"/>
<smd name="2" x="1.651" y="0" dx="1.27" dy="1.905" layer="1"/>
<text x="-1.778" y="1.27" size="1.016" layer="25" ratio="15">&gt;NAME</text>
<text x="-1.778" y="-2.286" size="1.016" layer="27" ratio="15">&gt;VALUE</text>
</package>
<package name="LED1206FAB">
<description>LED1206 FAB style (smaller pads to allow trace between)</description>
<wire x1="-2.032" y1="1.016" x2="2.032" y2="1.016" width="0.127" layer="21"/>
<wire x1="2.032" y1="1.016" x2="2.032" y2="-1.016" width="0.127" layer="21"/>
<wire x1="2.032" y1="-1.016" x2="-2.032" y2="-1.016" width="0.127" layer="21"/>
<wire x1="-2.032" y1="-1.016" x2="-2.032" y2="1.016" width="0.127" layer="21"/>
<smd name="1" x="-1.651" y="0" dx="1.27" dy="1.905" layer="1"/>
<smd name="2" x="1.651" y="0" dx="1.27" dy="1.905" layer="1"/>
<text x="-1.778" y="1.27" size="1.016" layer="25" ratio="15">&gt;NAME</text>
<text x="-1.778" y="-2.286" size="1.016" layer="27" ratio="15">&gt;VALUE</text>
</package>
</packages>
</library>
<library name="01_SparkFun">
<description>&lt;h3&gt;SparkFun Electronics' preferred foot prints&lt;/h3&gt;
We've spent an enormous amount of time creating and checking these footprints and parts. If you enjoy using this library, please buy one of our products at www.sparkfun.com.
&lt;br&gt;&lt;br&gt;
&lt;b&gt;Licensing:&lt;/b&gt; CC v3.0 Share-Alike You are welcome to use this library for commercial purposes. For attribution, we ask that when you begin to sell your device using our footprint, you email us with a link to the product being sold. We want bragging rights that we helped (in a very small part) to create your 8th world wonder. We would like the opportunity to feature your device on our homepage.</description>
<packages>
<package name="1206">
<wire x1="-2.473" y1="0.983" x2="2.473" y2="0.983" width="0.0508" layer="39"/>
<wire x1="2.473" y1="-0.983" x2="-2.473" y2="-0.983" width="0.0508" layer="39"/>
<wire x1="-2.473" y1="-0.983" x2="-2.473" y2="0.983" width="0.0508" layer="39"/>
<wire x1="2.473" y1="0.983" x2="2.473" y2="-0.983" width="0.0508" layer="39"/>
<wire x1="-0.965" y1="0.787" x2="0.965" y2="0.787" width="0.1016" layer="51"/>
<wire x1="-0.965" y1="-0.787" x2="0.965" y2="-0.787" width="0.1016" layer="51"/>
<smd name="1" x="-1.4" y="0" dx="1.6" dy="1.8" layer="1"/>
<smd name="2" x="1.4" y="0" dx="1.6" dy="1.8" layer="1"/>
<text x="-1.27" y="1.143" size="0.4064" layer="25">&gt;NAME</text>
<text x="-1.397" y="-1.524" size="0.4064" layer="27">&gt;VALUE</text>
<rectangle x1="-1.7018" y1="-0.8509" x2="-0.9517" y2="0.8491" layer="51"/>
<rectangle x1="0.9517" y1="-0.8491" x2="1.7018" y2="0.8509" layer="51"/>
<rectangle x1="-0.1999" y1="-0.4001" x2="0.1999" y2="0.4001" layer="35"/>
</package>
<package name="1X01_LONGPAD">
<wire x1="-1.27" y1="0.635" x2="-1.27" y2="-0.635" width="0.2032" layer="21"/>
<wire x1="1.27" y1="0.635" x2="1.27" y2="-0.635" width="0.2032" layer="21"/>
<pad name="1" x="0" y="0" drill="1.016" diameter="1.8796" shape="long" rot="R90"/>
<text x="-1.3462" y="1.8288" size="1.27" layer="25" ratio="10">&gt;NAME</text>
<text x="-1.27" y="-3.175" size="1.27" layer="27">&gt;VALUE</text>
<rectangle x1="-0.254" y1="-0.254" x2="0.254" y2="0.254" layer="51"/>
</package>
</packages>
</library>
<library name="con-amp-quick">
<description>&lt;b&gt;AMP Connectors, Type QUICK&lt;/b&gt;&lt;p&gt;
&lt;author&gt;Created by librarian@cadsoft.de&lt;/author&gt;</description>
<packages>
<package name="02P">
<description>&lt;b&gt;AMP QUICK CONNECTOR&lt;/b&gt;</description>
<wire x1="-2.286" y1="2.54" x2="-2.286" y2="1.778" width="0.1524" layer="21"/>
<wire x1="-2.286" y1="1.778" x2="-0.381" y2="1.778" width="0.1524" layer="21"/>
<wire x1="-0.381" y1="1.778" x2="-0.254" y2="1.651" width="0.1524" layer="21"/>
<wire x1="-0.254" y1="1.651" x2="0" y2="1.397" width="0.1524" layer="21"/>
<wire x1="0" y1="1.397" x2="0.254" y2="1.651" width="0.1524" layer="21"/>
<wire x1="0.254" y1="1.651" x2="0.381" y2="1.778" width="0.1524" layer="21"/>
<wire x1="-0.254" y1="-2.159" x2="-0.254" y2="-2.286" width="0.1524" layer="21"/>
<wire x1="-0.254" y1="-2.286" x2="-2.286" y2="-2.286" width="0.1524" layer="21"/>
<wire x1="0.254" y1="-2.159" x2="-0.254" y2="-2.159" width="0.1524" layer="21"/>
<wire x1="0.254" y1="-2.159" x2="0.254" y2="-2.286" width="0.1524" layer="21"/>
<wire x1="2.286" y1="-2.286" x2="0.254" y2="-2.286" width="0.1524" layer="21"/>
<wire x1="0.381" y1="1.778" x2="2.286" y2="1.778" width="0.1524" layer="21"/>
<wire x1="2.286" y1="1.778" x2="2.286" y2="2.54" width="0.1524" layer="21"/>
<wire x1="-2.286" y1="1.778" x2="-2.286" y2="-1.524" width="0.1524" layer="21"/>
<wire x1="-2.286" y1="-1.778" x2="-2.286" y2="-2.286" width="0.1524" layer="21"/>
<wire x1="-2.286" y1="-1.778" x2="-1.905" y2="-1.778" width="0.1524" layer="21"/>
<wire x1="2.286" y1="-1.778" x2="2.286" y2="-2.286" width="0.1524" layer="21"/>
<wire x1="2.286" y1="-1.778" x2="1.905" y2="-1.778" width="0.1524" layer="21"/>
<wire x1="2.286" y1="1.778" x2="2.286" y2="-1.524" width="0.1524" layer="21"/>
<wire x1="1.905" y1="-1.778" x2="1.905" y2="-1.524" width="0.1524" layer="21"/>
<wire x1="0.635" y1="-1.27" x2="1.905" y2="-1.27" width="0.1524" layer="21"/>
<wire x1="-0.635" y1="-1.778" x2="-0.635" y2="-1.524" width="0.1524" layer="21"/>
<wire x1="-1.905" y1="-1.778" x2="-1.905" y2="-1.524" width="0.1524" layer="21"/>
<wire x1="-1.905" y1="-1.27" x2="-0.635" y2="-1.27" width="0.1524" layer="21"/>
<wire x1="-0.635" y1="-1.778" x2="0.635" y2="-1.778" width="0.1524" layer="21"/>
<wire x1="-0.635" y1="-1.524" x2="-0.635" y2="-1.27" width="0.1524" layer="21"/>
<wire x1="0.635" y1="-1.778" x2="0.635" y2="-1.524" width="0.1524" layer="21"/>
<wire x1="0.635" y1="-1.524" x2="0.635" y2="-1.27" width="0.1524" layer="21"/>
<wire x1="0.254" y1="-1.524" x2="0.635" y2="-1.524" width="0.1524" layer="21"/>
<wire x1="0.254" y1="-1.524" x2="0.254" y2="1.651" width="0.1524" layer="21"/>
<wire x1="-0.635" y1="-1.524" x2="-0.254" y2="-1.524" width="0.1524" layer="21"/>
<wire x1="-0.254" y1="-1.524" x2="0.254" y2="-1.524" width="0.1524" layer="21"/>
<wire x1="-0.254" y1="-1.524" x2="-0.254" y2="1.651" width="0.1524" layer="21"/>
<wire x1="1.905" y1="-1.524" x2="2.286" y2="-1.524" width="0.1524" layer="21"/>
<wire x1="1.905" y1="-1.524" x2="1.905" y2="-1.27" width="0.1524" layer="21"/>
<wire x1="2.286" y1="-1.524" x2="2.286" y2="-1.778" width="0.1524" layer="21"/>
<wire x1="-1.905" y1="-1.524" x2="-2.286" y2="-1.524" width="0.1524" layer="21"/>
<wire x1="-1.905" y1="-1.524" x2="-1.905" y2="-1.27" width="0.1524" layer="21"/>
<wire x1="-2.286" y1="-1.524" x2="-2.286" y2="-1.778" width="0.1524" layer="21"/>
<wire x1="-2.286" y1="2.54" x2="-1.524" y2="2.54" width="0.1524" layer="21"/>
<wire x1="-1.524" y1="2.54" x2="-1.524" y2="2.667" width="0.1524" layer="21"/>
<wire x1="-1.016" y1="2.54" x2="-1.016" y2="2.667" width="0.1524" layer="21"/>
<wire x1="-1.016" y1="2.667" x2="-1.524" y2="2.667" width="0.1524" layer="21"/>
<wire x1="1.016" y1="2.54" x2="1.016" y2="2.667" width="0.1524" layer="21"/>
<wire x1="1.524" y1="2.54" x2="2.286" y2="2.54" width="0.1524" layer="21"/>
<wire x1="1.524" y1="2.54" x2="1.524" y2="2.667" width="0.1524" layer="21"/>
<wire x1="1.524" y1="2.667" x2="1.016" y2="2.667" width="0.1524" layer="21"/>
<wire x1="0.254" y1="2.413" x2="0.254" y2="2.54" width="0.1524" layer="21"/>
<wire x1="0.254" y1="2.54" x2="1.016" y2="2.54" width="0.1524" layer="21"/>
<wire x1="0.254" y1="2.413" x2="-0.254" y2="2.413" width="0.1524" layer="21"/>
<wire x1="-0.254" y1="2.413" x2="-0.254" y2="2.54" width="0.1524" layer="21"/>
<wire x1="-0.254" y1="2.54" x2="-1.016" y2="2.54" width="0.1524" layer="21"/>
<pad name="1" x="-1.27" y="0" drill="0.9144" shape="long" rot="R90"/>
<pad name="2" x="1.27" y="0" drill="0.9144" shape="long" rot="R90"/>
<text x="-0.762" y="0.9398" size="0.9906" layer="21" ratio="12" rot="R90">1</text>
<text x="-2.286" y="2.9464" size="1.27" layer="25" ratio="10">&gt;NAME</text>
<text x="-2.286" y="-3.8354" size="1.27" layer="27" ratio="10">&gt;VALUE</text>
<rectangle x1="-1.6002" y1="-0.3302" x2="-0.9398" y2="0.3302" layer="51"/>
<rectangle x1="0.9398" y1="-0.3302" x2="1.6002" y2="0.3302" layer="51"/>
</package>
</packages>
</library>
<library name="FAB_Hello">
<packages>
<package name="6MM_SWITCH">
<description>&lt;b&gt;OMRON SWITCH&lt;/b&gt;</description>
<wire x1="3.302" y1="-0.762" x2="3.048" y2="-0.762" width="0.1524" layer="21"/>
<wire x1="3.302" y1="-0.762" x2="3.302" y2="0.762" width="0.1524" layer="21"/>
<wire x1="3.048" y1="0.762" x2="3.302" y2="0.762" width="0.1524" layer="21"/>
<wire x1="3.048" y1="1.016" x2="3.048" y2="2.54" width="0.1524" layer="51"/>
<wire x1="-3.302" y1="0.762" x2="-3.048" y2="0.762" width="0.1524" layer="21"/>
<wire x1="-3.302" y1="0.762" x2="-3.302" y2="-0.762" width="0.1524" layer="21"/>
<wire x1="-3.048" y1="-0.762" x2="-3.302" y2="-0.762" width="0.1524" layer="21"/>
<wire x1="3.048" y1="2.54" x2="2.54" y2="3.048" width="0.1524" layer="51"/>
<wire x1="2.54" y1="-3.048" x2="3.048" y2="-2.54" width="0.1524" layer="51"/>
<wire x1="3.048" y1="-2.54" x2="3.048" y2="-1.016" width="0.1524" layer="51"/>
<wire x1="-2.54" y1="3.048" x2="-3.048" y2="2.54" width="0.1524" layer="51"/>
<wire x1="-3.048" y1="2.54" x2="-3.048" y2="1.016" width="0.1524" layer="51"/>
<wire x1="-2.54" y1="-3.048" x2="-3.048" y2="-2.54" width="0.1524" layer="51"/>
<wire x1="-3.048" y1="-2.54" x2="-3.048" y2="-1.016" width="0.1524" layer="51"/>
<wire x1="-1.27" y1="1.27" x2="-1.27" y2="-1.27" width="0.0508" layer="51"/>
<wire x1="1.27" y1="-1.27" x2="-1.27" y2="-1.27" width="0.0508" layer="51"/>
<wire x1="1.27" y1="-1.27" x2="1.27" y2="1.27" width="0.0508" layer="51"/>
<wire x1="-1.27" y1="1.27" x2="1.27" y2="1.27" width="0.0508" layer="51"/>
<wire x1="-1.27" y1="3.048" x2="-1.27" y2="2.794" width="0.0508" layer="21"/>
<wire x1="1.27" y1="2.794" x2="-1.27" y2="2.794" width="0.0508" layer="21"/>
<wire x1="1.27" y1="2.794" x2="1.27" y2="3.048" width="0.0508" layer="21"/>
<wire x1="1.143" y1="-2.794" x2="-1.27" y2="-2.794" width="0.0508" layer="21"/>
<wire x1="1.143" y1="-2.794" x2="1.143" y2="-3.048" width="0.0508" layer="21"/>
<wire x1="-1.27" y1="-2.794" x2="-1.27" y2="-3.048" width="0.0508" layer="21"/>
<wire x1="2.54" y1="-3.048" x2="2.159" y2="-3.048" width="0.1524" layer="51"/>
<wire x1="-2.54" y1="-3.048" x2="-2.159" y2="-3.048" width="0.1524" layer="51"/>
<wire x1="-2.159" y1="-3.048" x2="-1.27" y2="-3.048" width="0.1524" layer="21"/>
<wire x1="-2.54" y1="3.048" x2="-2.159" y2="3.048" width="0.1524" layer="51"/>
<wire x1="2.54" y1="3.048" x2="2.159" y2="3.048" width="0.1524" layer="51"/>
<wire x1="2.159" y1="3.048" x2="1.27" y2="3.048" width="0.1524" layer="21"/>
<wire x1="1.27" y1="3.048" x2="-1.27" y2="3.048" width="0.1524" layer="21"/>
<wire x1="-1.27" y1="3.048" x2="-2.159" y2="3.048" width="0.1524" layer="21"/>
<wire x1="-1.27" y1="-3.048" x2="1.143" y2="-3.048" width="0.1524" layer="21"/>
<wire x1="1.143" y1="-3.048" x2="2.159" y2="-3.048" width="0.1524" layer="21"/>
<wire x1="3.048" y1="-0.762" x2="3.048" y2="-1.016" width="0.1524" layer="21"/>
<wire x1="3.048" y1="0.762" x2="3.048" y2="1.016" width="0.1524" layer="21"/>
<wire x1="-3.048" y1="-0.762" x2="-3.048" y2="-1.016" width="0.1524" layer="21"/>
<wire x1="-3.048" y1="0.762" x2="-3.048" y2="1.016" width="0.1524" layer="21"/>
<wire x1="-1.27" y1="-2.159" x2="1.27" y2="-2.159" width="0.1524" layer="51"/>
<wire x1="1.27" y1="2.286" x2="-1.27" y2="2.286" width="0.1524" layer="51"/>
<wire x1="-2.413" y1="1.27" x2="-2.413" y2="0.508" width="0.1524" layer="51"/>
<wire x1="-2.413" y1="-0.508" x2="-2.413" y2="-1.27" width="0.1524" layer="51"/>
<wire x1="-2.413" y1="0.508" x2="-2.159" y2="-0.381" width="0.1524" layer="51"/>
<circle x="0" y="0" radius="1.778" width="0.1524" layer="21"/>
<circle x="-2.159" y="-2.159" radius="0.508" width="0.1524" layer="51"/>
<circle x="2.159" y="-2.032" radius="0.508" width="0.1524" layer="51"/>
<circle x="2.159" y="2.159" radius="0.508" width="0.1524" layer="51"/>
<circle x="-2.159" y="2.159" radius="0.508" width="0.1524" layer="51"/>
<circle x="0" y="0" radius="0.635" width="0.0508" layer="51"/>
<circle x="0" y="0" radius="0.254" width="0.1524" layer="21"/>
<smd name="1" x="-3.302" y="2.286" dx="2.286" dy="1.524" layer="1"/>
<smd name="2" x="3.302" y="2.286" dx="2.286" dy="1.524" layer="1"/>
<smd name="3" x="-3.302" y="-2.286" dx="2.286" dy="1.524" layer="1"/>
<smd name="4" x="3.302" y="-2.286" dx="2.286" dy="1.524" layer="1"/>
<text x="-3.048" y="3.683" size="1.27" layer="25" ratio="10">&gt;NAME</text>
<text x="-3.048" y="-5.08" size="1.27" layer="27" ratio="10">&gt;VALUE</text>
<text x="-4.318" y="1.651" size="1.27" layer="51" ratio="10">1</text>
<text x="3.556" y="1.524" size="1.27" layer="51" ratio="10">2</text>
<text x="-4.572" y="-2.794" size="1.27" layer="51" ratio="10">3</text>
<text x="3.556" y="-2.794" size="1.27" layer="51" ratio="10">4</text>
</package>
</packages>
</library>
<library name="con-amp-quick" urn="urn:adsk.eagle:library:125">
<description>&lt;b&gt;AMP Connectors, Type QUICK&lt;/b&gt;&lt;p&gt;
&lt;author&gt;Created by librarian@cadsoft.de&lt;/author&gt;</description>
<packages>
<package name="03P" urn="urn:adsk.eagle:footprint:5912/1" library_version="1">
<description>&lt;b&gt;AMP QUICK CONNECTOR&lt;/b&gt;</description>
<wire x1="-1.651" y1="1.778" x2="-1.524" y2="1.651" width="0.1524" layer="21"/>
<wire x1="-1.524" y1="1.651" x2="-1.27" y2="1.397" width="0.1524" layer="21"/>
<wire x1="-1.27" y1="1.397" x2="-1.016" y2="1.651" width="0.1524" layer="21"/>
<wire x1="-1.016" y1="1.651" x2="-0.889" y2="1.778" width="0.1524" layer="21"/>
<wire x1="-1.524" y1="-2.159" x2="-1.524" y2="-2.286" width="0.1524" layer="21"/>
<wire x1="-1.524" y1="-2.286" x2="-3.556" y2="-2.286" width="0.1524" layer="21"/>
<wire x1="-1.016" y1="-2.159" x2="-1.524" y2="-2.159" width="0.1524" layer="21"/>
<wire x1="-1.016" y1="-2.159" x2="-1.016" y2="-2.286" width="0.1524" layer="21"/>
<wire x1="-3.556" y1="2.54" x2="-3.556" y2="1.778" width="0.1524" layer="21"/>
<wire x1="-3.556" y1="1.778" x2="-3.556" y2="-1.524" width="0.1524" layer="21"/>
<wire x1="-3.556" y1="-1.778" x2="-3.556" y2="-2.286" width="0.1524" layer="21"/>
<wire x1="-3.556" y1="-1.778" x2="-3.175" y2="-1.778" width="0.1524" layer="21"/>
<wire x1="-1.905" y1="-1.778" x2="-1.905" y2="-1.524" width="0.1524" layer="21"/>
<wire x1="-3.175" y1="-1.778" x2="-3.175" y2="-1.524" width="0.1524" layer="21"/>
<wire x1="-3.175" y1="-1.27" x2="-1.905" y2="-1.27" width="0.1524" layer="21"/>
<wire x1="-1.905" y1="-1.524" x2="-1.905" y2="-1.27" width="0.1524" layer="21"/>
<wire x1="-0.635" y1="-1.778" x2="-0.635" y2="-1.524" width="0.1524" layer="21"/>
<wire x1="-0.635" y1="-1.524" x2="-0.635" y2="-1.27" width="0.1524" layer="21"/>
<wire x1="-1.905" y1="-1.524" x2="-1.524" y2="-1.524" width="0.1524" layer="21"/>
<wire x1="-1.524" y1="-1.524" x2="-1.016" y2="-1.524" width="0.1524" layer="21"/>
<wire x1="-1.016" y1="-1.524" x2="-0.635" y2="-1.524" width="0.1524" layer="21"/>
<wire x1="-3.175" y1="-1.524" x2="-3.556" y2="-1.524" width="0.1524" layer="21"/>
<wire x1="-3.175" y1="-1.524" x2="-3.175" y2="-1.27" width="0.1524" layer="21"/>
<wire x1="-3.556" y1="-1.524" x2="-3.556" y2="-1.778" width="0.1524" layer="21"/>
<wire x1="-3.556" y1="2.54" x2="-2.794" y2="2.54" width="0.1524" layer="21"/>
<wire x1="-2.794" y1="2.54" x2="-2.794" y2="2.667" width="0.1524" layer="21"/>
<wire x1="-2.286" y1="2.54" x2="-2.286" y2="2.667" width="0.1524" layer="21"/>
<wire x1="-2.286" y1="2.667" x2="-2.794" y2="2.667" width="0.1524" layer="21"/>
<wire x1="-0.254" y1="2.54" x2="-0.254" y2="2.667" width="0.1524" layer="21"/>
<wire x1="0.254" y1="2.54" x2="0.254" y2="2.667" width="0.1524" layer="21"/>
<wire x1="-1.016" y1="2.413" x2="-1.016" y2="2.54" width="0.1524" layer="21"/>
<wire x1="-1.524" y1="2.413" x2="-1.524" y2="2.54" width="0.1524" layer="21"/>
<wire x1="1.27" y1="1.397" x2="1.524" y2="1.651" width="0.1524" layer="21"/>
<wire x1="1.524" y1="1.651" x2="1.651" y2="1.778" width="0.1524" layer="21"/>
<wire x1="1.524" y1="-2.159" x2="1.016" y2="-2.159" width="0.1524" layer="21"/>
<wire x1="1.524" y1="-2.159" x2="1.524" y2="-2.286" width="0.1524" layer="21"/>
<wire x1="3.556" y1="-2.286" x2="1.524" y2="-2.286" width="0.1524" layer="21"/>
<wire x1="1.651" y1="1.778" x2="3.556" y2="1.778" width="0.1524" layer="21"/>
<wire x1="3.556" y1="1.778" x2="3.556" y2="2.54" width="0.1524" layer="21"/>
<wire x1="3.556" y1="-1.778" x2="3.556" y2="-2.286" width="0.1524" layer="21"/>
<wire x1="3.556" y1="-1.778" x2="3.175" y2="-1.778" width="0.1524" layer="21"/>
<wire x1="3.556" y1="1.778" x2="3.556" y2="-1.524" width="0.1524" layer="21"/>
<wire x1="3.175" y1="-1.778" x2="3.175" y2="-1.524" width="0.1524" layer="21"/>
<wire x1="1.905" y1="-1.27" x2="3.175" y2="-1.27" width="0.1524" layer="21"/>
<wire x1="0.635" y1="-1.778" x2="0.635" y2="-1.524" width="0.1524" layer="21"/>
<wire x1="0.635" y1="-1.524" x2="0.635" y2="-1.27" width="0.1524" layer="21"/>
<wire x1="1.905" y1="-1.778" x2="1.905" y2="-1.524" width="0.1524" layer="21"/>
<wire x1="1.905" y1="-1.524" x2="1.905" y2="-1.27" width="0.1524" layer="21"/>
<wire x1="0.635" y1="-1.524" x2="1.016" y2="-1.524" width="0.1524" layer="21"/>
<wire x1="1.016" y1="-1.524" x2="1.524" y2="-1.524" width="0.1524" layer="21"/>
<wire x1="1.524" y1="-1.524" x2="1.905" y2="-1.524" width="0.1524" layer="21"/>
<wire x1="3.175" y1="-1.524" x2="3.556" y2="-1.524" width="0.1524" layer="21"/>
<wire x1="3.175" y1="-1.524" x2="3.175" y2="-1.27" width="0.1524" layer="21"/>
<wire x1="3.556" y1="-1.524" x2="3.556" y2="-1.778" width="0.1524" layer="21"/>
<wire x1="2.286" y1="2.54" x2="2.286" y2="2.667" width="0.1524" layer="21"/>
<wire x1="2.794" y1="2.54" x2="3.556" y2="2.54" width="0.1524" layer="21"/>
<wire x1="2.794" y1="2.54" x2="2.794" y2="2.667" width="0.1524" layer="21"/>
<wire x1="2.794" y1="2.667" x2="2.286" y2="2.667" width="0.1524" layer="21"/>
<wire x1="1.524" y1="2.413" x2="1.524" y2="2.54" width="0.1524" layer="21"/>
<wire x1="1.524" y1="2.54" x2="2.286" y2="2.54" width="0.1524" layer="21"/>
<wire x1="1.524" y1="2.413" x2="1.016" y2="2.413" width="0.1524" layer="21"/>
<wire x1="1.016" y1="2.413" x2="1.016" y2="2.54" width="0.1524" layer="21"/>
<wire x1="0.889" y1="1.778" x2="1.016" y2="1.651" width="0.1524" layer="21"/>
<wire x1="1.016" y1="1.651" x2="1.27" y2="1.397" width="0.1524" layer="21"/>
<wire x1="0.254" y1="2.54" x2="1.016" y2="2.54" width="0.1524" layer="21"/>
<wire x1="0.254" y1="2.667" x2="-0.254" y2="2.667" width="0.1524" layer="21"/>
<wire x1="-1.016" y1="2.54" x2="-0.254" y2="2.54" width="0.1524" layer="21"/>
<wire x1="-1.524" y1="2.413" x2="-1.016" y2="2.413" width="0.1524" layer="21"/>
<wire x1="-1.524" y1="2.54" x2="-2.286" y2="2.54" width="0.1524" layer="21"/>
<wire x1="-1.651" y1="1.778" x2="-3.556" y2="1.778" width="0.1524" layer="21"/>
<wire x1="-0.889" y1="1.778" x2="0.889" y2="1.778" width="0.1524" layer="21"/>
<wire x1="-1.016" y1="1.651" x2="-1.016" y2="-1.524" width="0.1524" layer="21"/>
<wire x1="-1.524" y1="1.651" x2="-1.524" y2="-1.524" width="0.1524" layer="21"/>
<wire x1="1.016" y1="1.651" x2="1.016" y2="-1.524" width="0.1524" layer="21"/>
<wire x1="1.524" y1="1.651" x2="1.524" y2="-1.524" width="0.1524" layer="21"/>
<wire x1="-0.635" y1="-1.27" x2="0.635" y2="-1.27" width="0.1524" layer="21"/>
<wire x1="-0.635" y1="-1.778" x2="-1.905" y2="-1.778" width="0.1524" layer="21"/>
<wire x1="-1.016" y1="-2.286" x2="1.016" y2="-2.286" width="0.1524" layer="21"/>
<wire x1="0.635" y1="-1.778" x2="1.905" y2="-1.778" width="0.1524" layer="21"/>
<wire x1="1.016" y1="-2.159" x2="1.016" y2="-2.286" width="0.1524" layer="21"/>
<pad name="1" x="-2.54" y="0" drill="0.9144" shape="long" rot="R90"/>
<pad name="2" x="0" y="0" drill="0.9144" shape="long" rot="R90"/>
<pad name="3" x="2.54" y="0" drill="0.9144" shape="long" rot="R90"/>
<text x="-2.032" y="0.9398" size="0.9906" layer="21" ratio="12" rot="R90">1</text>
<text x="-3.556" y="2.9464" size="1.27" layer="25" ratio="10">&gt;NAME</text>
<text x="-3.556" y="-3.8354" size="1.27" layer="27" ratio="10">&gt;VALUE</text>
<rectangle x1="-2.8702" y1="-0.3302" x2="-2.2098" y2="0.3302" layer="51"/>
<rectangle x1="-0.3302" y1="-0.3302" x2="0.3302" y2="0.3302" layer="51"/>
<rectangle x1="2.2098" y1="-0.3302" x2="2.8702" y2="0.3302" layer="51"/>
</package>
</packages>
<packages3d>
<package3d name="03P" urn="urn:adsk.eagle:package:5957/1" type="box" library_version="1">
<description>AMP QUICK CONNECTOR</description>
<packageinstances>
<packageinstance name="03P"/>
</packageinstances>
</package3d>
</packages3d>
</library>
<library name="tango">
<packages>
<package name="L7805">
<wire x1="-3.175" y1="-2.159" x2="3.302" y2="-2.159" width="0.3048" layer="21"/>
<wire x1="3.302" y1="-2.159" x2="3.302" y2="4.191" width="0.3048" layer="21"/>
<wire x1="3.302" y1="4.191" x2="-3.175" y2="4.191" width="0.3048" layer="21"/>
<wire x1="-3.175" y1="4.191" x2="-3.175" y2="-2.159" width="0.3048" layer="21"/>
<wire x1="-2.54" y1="3.556" x2="2.794" y2="3.556" width="0.3048" layer="21"/>
<wire x1="2.794" y1="3.556" x2="2.794" y2="-1.651" width="0.3048" layer="21"/>
<wire x1="2.794" y1="-1.651" x2="-2.54" y2="-1.651" width="0.3048" layer="21"/>
<wire x1="-2.54" y1="-1.651" x2="-2.54" y2="3.556" width="0.3048" layer="21"/>
<wire x1="-2.286" y1="1.651" x2="-2.286" y2="0.381" width="0.3048" layer="21" curve="-168.578814"/>
<wire x1="2.54" y1="0.381" x2="2.54" y2="1.651" width="0.3048" layer="21" curve="-168.578814"/>
<wire x1="-3.175" y1="4.318" x2="-3.175" y2="7.874" width="0.3048" layer="21"/>
<wire x1="-3.175" y1="7.874" x2="-2.54" y2="8.509" width="0.3048" layer="21"/>
<wire x1="-2.54" y1="8.509" x2="2.667" y2="8.509" width="0.3048" layer="21"/>
<wire x1="2.667" y1="8.509" x2="3.302" y2="7.874" width="0.3048" layer="21"/>
<wire x1="3.302" y1="7.874" x2="3.302" y2="4.191" width="0.3048" layer="21"/>
<wire x1="-2.286" y1="-8.001" x2="-2.286" y2="-2.413" width="0.6096" layer="21"/>
<wire x1="0" y1="-8.001" x2="0" y2="-2.413" width="0.6096" layer="21"/>
<wire x1="2.286" y1="-8.001" x2="2.286" y2="-2.413" width="0.6096" layer="21"/>
<pad name="IN" x="-2.159" y="-9.652" drill="1.1" diameter="1.9304" shape="square"/>
<pad name="GND" x="0.127" y="-9.652" drill="1.1" diameter="1.9304"/>
<pad name="OUT" x="2.413" y="-9.652" drill="1.1" diameter="1.9304" shape="square"/>
<text x="-2.794" y="-7.62" size="1.27" layer="21" rot="R90">IN</text>
<text x="-0.381" y="-7.62" size="1.27" layer="21" rot="R90">GND</text>
<text x="1.905" y="-7.62" size="1.27" layer="21" rot="R90">OUT</text>
<text x="-2.54" y="8.89" size="1.27" layer="21">GND</text>
<text x="-2.032" y="-1.27" size="1.27" layer="21">7805</text>
<text x="-4.445" y="-1.905" size="1.27" layer="25" rot="R90">&gt;NAME</text>
<hole x="0.254" y="6.35" drill="2.8"/>
</package>
</packages>
</library>
</libraries>
<attributes>
</attributes>
<variantdefs>
</variantdefs>
<classes>
<class number="0" name="default" width="0" drill="0">
</class>
</classes>
<designrules name="default">
<description language="de">&lt;b&gt;EAGLE Design Rules&lt;/b&gt;
&lt;p&gt;
Die Standard-Design-Rules sind so gewählt, dass sie für 
die meisten Anwendungen passen. Sollte ihre Platine 
besondere Anforderungen haben, treffen Sie die erforderlichen
Einstellungen hier und speichern die Design Rules unter 
einem neuen Namen ab.</description>
<description language="en">&lt;b&gt;EAGLE Design Rules&lt;/b&gt;
&lt;p&gt;
The default Design Rules have been set to cover
a wide range of applications. Your particular design
may have different requirements, so please make the
necessary adjustments and save your customized
design rules under a new name.</description>
<param name="layerSetup" value="(1*16)"/>
<param name="mtCopper" value="0.035mm 0.035mm 0.035mm 0.035mm 0.035mm 0.035mm 0.035mm 0.035mm 0.035mm 0.035mm 0.035mm 0.035mm 0.035mm 0.035mm 0.035mm 0.035mm"/>
<param name="mtIsolate" value="1.5mm 0.15mm 0.2mm 0.15mm 0.2mm 0.15mm 0.2mm 0.15mm 0.2mm 0.15mm 0.2mm 0.15mm 0.2mm 0.15mm 0.2mm"/>
<param name="mdWireWire" value="8mil"/>
<param name="mdWirePad" value="8mil"/>
<param name="mdWireVia" value="8mil"/>
<param name="mdPadPad" value="8mil"/>
<param name="mdPadVia" value="8mil"/>
<param name="mdViaVia" value="8mil"/>
<param name="mdSmdPad" value="8mil"/>
<param name="mdSmdVia" value="8mil"/>
<param name="mdSmdSmd" value="8mil"/>
<param name="mdViaViaSameLayer" value="8mil"/>
<param name="mnLayersViaInSmd" value="2"/>
<param name="mdCopperDimension" value="40mil"/>
<param name="mdDrill" value="8mil"/>
<param name="mdSmdStop" value="0mil"/>
<param name="msWidth" value="10mil"/>
<param name="msDrill" value="24mil"/>
<param name="msMicroVia" value="9.99mm"/>
<param name="msBlindViaRatio" value="0.5"/>
<param name="rvPadTop" value="0.25"/>
<param name="rvPadInner" value="0.25"/>
<param name="rvPadBottom" value="0.25"/>
<param name="rvViaOuter" value="0.25"/>
<param name="rvViaInner" value="0.25"/>
<param name="rvMicroViaOuter" value="0.25"/>
<param name="rvMicroViaInner" value="0.25"/>
<param name="rlMinPadTop" value="10mil"/>
<param name="rlMaxPadTop" value="20mil"/>
<param name="rlMinPadInner" value="10mil"/>
<param name="rlMaxPadInner" value="20mil"/>
<param name="rlMinPadBottom" value="10mil"/>
<param name="rlMaxPadBottom" value="20mil"/>
<param name="rlMinViaOuter" value="8mil"/>
<param name="rlMaxViaOuter" value="20mil"/>
<param name="rlMinViaInner" value="8mil"/>
<param name="rlMaxViaInner" value="20mil"/>
<param name="rlMinMicroViaOuter" value="4mil"/>
<param name="rlMaxMicroViaOuter" value="20mil"/>
<param name="rlMinMicroViaInner" value="4mil"/>
<param name="rlMaxMicroViaInner" value="20mil"/>
<param name="psTop" value="-1"/>
<param name="psBottom" value="-1"/>
<param name="psFirst" value="-1"/>
<param name="psElongationLong" value="100"/>
<param name="psElongationOffset" value="100"/>
<param name="mvStopFrame" value="1"/>
<param name="mvCreamFrame" value="0"/>
<param name="mlMinStopFrame" value="4mil"/>
<param name="mlMaxStopFrame" value="4mil"/>
<param name="mlMinCreamFrame" value="0mil"/>
<param name="mlMaxCreamFrame" value="0mil"/>
<param name="mlViaStopLimit" value="0mil"/>
<param name="srRoundness" value="0"/>
<param name="srMinRoundness" value="0mil"/>
<param name="srMaxRoundness" value="0mil"/>
<param name="slThermalIsolate" value="10mil"/>
<param name="slThermalsForVias" value="0"/>
<param name="dpMaxLengthDifference" value="10mm"/>
<param name="dpGapFactor" value="2.5"/>
<param name="checkAngle" value="0"/>
<param name="checkFont" value="1"/>
<param name="checkRestrict" value="1"/>
<param name="checkStop" value="0"/>
<param name="checkValues" value="0"/>
<param name="checkNames" value="1"/>
<param name="checkWireStubs" value="1"/>
<param name="checkPolygonWidth" value="0"/>
<param name="useDiameter" value="13"/>
<param name="maxErrors" value="50"/>
</designrules>
<autorouter>
<pass name="Default">
<param name="RoutingGrid" value="12.5mil"/>
<param name="AutoGrid" value="1"/>
<param name="Efforts" value="0"/>
<param name="TopRouterVariant" value="1"/>
<param name="tpViaShape" value="round"/>
<param name="PrefDir.1" value="-"/>
<param name="PrefDir.2" value="0"/>
<param name="PrefDir.3" value="0"/>
<param name="PrefDir.4" value="0"/>
<param name="PrefDir.5" value="0"/>
<param name="PrefDir.6" value="0"/>
<param name="PrefDir.7" value="0"/>
<param name="PrefDir.8" value="0"/>
<param name="PrefDir.9" value="0"/>
<param name="PrefDir.10" value="0"/>
<param name="PrefDir.11" value="0"/>
<param name="PrefDir.12" value="0"/>
<param name="PrefDir.13" value="0"/>
<param name="PrefDir.14" value="0"/>
<param name="PrefDir.15" value="0"/>
<param name="PrefDir.16" value="|"/>
<param name="cfVia" value="8"/>
<param name="cfNonPref" value="5"/>
<param name="cfChangeDir" value="2"/>
<param name="cfOrthStep" value="2"/>
<param name="cfDiagStep" value="3"/>
<param name="cfExtdStep" value="0"/>
<param name="cfBonusStep" value="1"/>
<param name="cfMalusStep" value="1"/>
<param name="cfPadImpact" value="4"/>
<param name="cfSmdImpact" value="4"/>
<param name="cfBusImpact" value="0"/>
<param name="cfHugging" value="3"/>
<param name="cfAvoid" value="4"/>
<param name="cfPolygon" value="10"/>
<param name="cfBase.1" value="0"/>
<param name="cfBase.2" value="1"/>
<param name="cfBase.3" value="1"/>
<param name="cfBase.4" value="1"/>
<param name="cfBase.5" value="1"/>
<param name="cfBase.6" value="1"/>
<param name="cfBase.7" value="1"/>
<param name="cfBase.8" value="1"/>
<param name="cfBase.9" value="1"/>
<param name="cfBase.10" value="1"/>
<param name="cfBase.11" value="1"/>
<param name="cfBase.12" value="1"/>
<param name="cfBase.13" value="1"/>
<param name="cfBase.14" value="1"/>
<param name="cfBase.15" value="1"/>
<param name="cfBase.16" value="0"/>
<param name="mnVias" value="20"/>
<param name="mnSegments" value="9999"/>
<param name="mnExtdSteps" value="9999"/>
<param name="mnRipupLevel" value="10"/>
<param name="mnRipupSteps" value="100"/>
<param name="mnRipupTotal" value="100"/>
</pass>
<pass name="Follow-me" refer="Default" active="yes">
</pass>
<pass name="Busses" refer="Default" active="yes">
<param name="cfNonPref" value="4"/>
<param name="cfBusImpact" value="4"/>
<param name="cfHugging" value="0"/>
<param name="mnVias" value="0"/>
</pass>
<pass name="Route" refer="Default" active="yes">
</pass>
<pass name="Optimize1" refer="Default" active="yes">
<param name="cfVia" value="99"/>
<param name="cfExtdStep" value="10"/>
<param name="cfHugging" value="1"/>
<param name="mnExtdSteps" value="1"/>
<param name="mnRipupLevel" value="0"/>
</pass>
<pass name="Optimize2" refer="Optimize1" active="yes">
<param name="cfNonPref" value="0"/>
<param name="cfChangeDir" value="6"/>
<param name="cfExtdStep" value="0"/>
<param name="cfBonusStep" value="2"/>
<param name="cfMalusStep" value="2"/>
<param name="cfPadImpact" value="2"/>
<param name="cfSmdImpact" value="2"/>
<param name="cfHugging" value="0"/>
</pass>
<pass name="Optimize3" refer="Optimize2" active="yes">
<param name="cfChangeDir" value="8"/>
<param name="cfPadImpact" value="0"/>
<param name="cfSmdImpact" value="0"/>
</pass>
<pass name="Optimize4" refer="Optimize3" active="yes">
<param name="cfChangeDir" value="25"/>
</pass>
</autorouter>
<elements>
<element name="001" library="fab" package="SOIC8" value="ATTINY45SI" x="39.878" y="55.88" smashed="yes" rot="R90">
<attribute name="NAME" x="42.037" y="53.0225" size="1.27" layer="25" ratio="10" rot="R180"/>
<attribute name="VALUE" x="42.037" y="59.944" size="1.27" layer="27" ratio="10" rot="R180"/>
</element>
<element name="R1" library="fab" package="R1206FAB" value="10K" x="43.307" y="42.418" smashed="yes" rot="R270">
<attribute name="NAME" x="44.577" y="44.196" size="1.016" layer="25" ratio="15" rot="R270"/>
<attribute name="VALUE" x="41.021" y="44.196" size="1.016" layer="27" ratio="15" rot="R270"/>
</element>
<element name="R2" library="fablab" package="R1206FAB" value="499" x="50.8" y="56.896" smashed="yes" rot="R90">
<attribute name="NAME" x="49.53" y="55.118" size="1.016" layer="25" ratio="15" rot="R90"/>
<attribute name="VALUE" x="53.086" y="55.118" size="1.016" layer="27" ratio="15" rot="R90"/>
</element>
<element name="LED" library="fablab" package="LED1206FAB" value="YELLOW" x="56.134" y="56.769" smashed="yes" rot="R270">
<attribute name="NAME" x="57.404" y="58.547" size="1.016" layer="25" ratio="15" rot="R270"/>
<attribute name="VALUE" x="53.848" y="58.547" size="1.016" layer="27" ratio="15" rot="R270"/>
</element>
<element name="C3" library="01_SparkFun" package="1206" value="100nF" x="55.499" y="50.673" smashed="yes" rot="R90">
<attribute name="NAME" x="54.102" y="49.657" size="0.4064" layer="25" rot="R90"/>
<attribute name="VALUE" x="57.023" y="49.276" size="0.4064" layer="27" rot="R90"/>
</element>
<element name="C1" library="01_SparkFun" package="1206" value="1uF" x="59.055" y="50.673" smashed="yes" rot="R90">
<attribute name="NAME" x="57.912" y="49.403" size="0.4064" layer="25" rot="R90"/>
<attribute name="VALUE" x="60.579" y="49.276" size="0.4064" layer="27" rot="R90"/>
</element>
<element name="C2" library="01_SparkFun" package="1206" value="10uF" x="61.976" y="50.673" smashed="yes" rot="R90">
<attribute name="NAME" x="60.833" y="49.403" size="0.4064" layer="25" rot="R90"/>
<attribute name="VALUE" x="63.5" y="49.276" size="0.4064" layer="27" rot="R90"/>
</element>
<element name="POWER_1" library="con-amp-quick" package="02P" value="9V IN" x="61.468" y="56.515" smashed="yes" rot="R180">
<attribute name="MF" value="" x="61.468" y="56.515" size="1.778" layer="27" rot="R180" display="off"/>
<attribute name="MPN" value="" x="61.468" y="56.515" size="1.778" layer="27" rot="R180" display="off"/>
<attribute name="NAME" x="63.754" y="53.5686" size="1.27" layer="25" ratio="10" rot="R180"/>
<attribute name="OC_FARNELL" value="unknown" x="61.468" y="56.515" size="1.778" layer="27" rot="R180" display="off"/>
<attribute name="OC_NEWARK" value="unknown" x="61.468" y="56.515" size="1.778" layer="27" rot="R180" display="off"/>
<attribute name="VALUE" x="63.754" y="60.3504" size="1.27" layer="27" ratio="10" rot="R180"/>
</element>
<element name="RST" library="01_SparkFun" package="1X01_LONGPAD" value="M01" x="48.133" y="43.942" smashed="yes" rot="R180">
<attribute name="NAME" x="49.4792" y="42.1132" size="1.27" layer="25" ratio="10" rot="R180"/>
<attribute name="VALUE" x="49.403" y="47.117" size="1.27" layer="27" rot="R180"/>
</element>
<element name="B1" library="FAB_Hello" package="6MM_SWITCH" value="" x="55.626" y="42.926" smashed="yes">
<attribute name="NAME" x="52.578" y="46.609" size="1.27" layer="25" ratio="10"/>
<attribute name="VALUE" x="52.578" y="37.846" size="1.27" layer="27" ratio="10"/>
</element>
<element name="SL1" library="con-amp-quick" library_urn="urn:adsk.eagle:library:125" package="03P" package3d_urn="urn:adsk.eagle:package:5957/1" value="" x="30.226" y="54.61" smashed="yes" rot="R90">
<attribute name="MF" value="" x="30.226" y="54.61" size="1.778" layer="27" rot="R90" display="off"/>
<attribute name="MPN" value="" x="30.226" y="54.61" size="1.778" layer="27" rot="R90" display="off"/>
<attribute name="NAME" x="27.2796" y="51.054" size="1.27" layer="25" ratio="10" rot="R90"/>
<attribute name="OC_FARNELL" value="unknown" x="30.226" y="54.61" size="1.778" layer="27" rot="R90" display="off"/>
<attribute name="OC_NEWARK" value="unknown" x="30.226" y="54.61" size="1.778" layer="27" rot="R90" display="off"/>
<attribute name="VALUE" x="34.0614" y="51.054" size="1.27" layer="27" ratio="10" rot="R90"/>
</element>
<element name="LED2" library="fablab" package="LED1206FAB" value="YELLOW" x="50.8" y="48.514" smashed="yes" rot="R180">
<attribute name="NAME" x="52.578" y="47.244" size="1.016" layer="25" ratio="15" rot="R180"/>
<attribute name="VALUE" x="52.578" y="50.8" size="1.016" layer="27" ratio="15" rot="R180"/>
</element>
<element name="R3" library="fablab" package="R1206FAB" value="499" x="50.8" y="51.943" smashed="yes">
<attribute name="NAME" x="49.022" y="53.213" size="1.016" layer="25" ratio="15"/>
<attribute name="VALUE" x="49.022" y="49.657" size="1.016" layer="27" ratio="15"/>
</element>
<element name="POWER_2" library="con-amp-quick" package="02P" value="" x="34.544" y="45.466" smashed="yes" rot="R90">
<attribute name="MF" value="" x="34.544" y="45.466" size="1.778" layer="27" rot="R90" display="off"/>
<attribute name="MPN" value="" x="34.544" y="45.466" size="1.778" layer="27" rot="R90" display="off"/>
<attribute name="NAME" x="33.6296" y="43.18" size="1.27" layer="25" ratio="10" rot="R90"/>
<attribute name="OC_FARNELL" value="unknown" x="34.544" y="45.466" size="1.778" layer="27" rot="R90" display="off"/>
<attribute name="OC_NEWARK" value="unknown" x="34.544" y="45.466" size="1.778" layer="27" rot="R90" display="off"/>
<attribute name="VALUE" x="38.3794" y="43.18" size="1.27" layer="27" ratio="10" rot="R90"/>
</element>
<element name="REGULATOR" library="tango" package="L7805" value="-L7805" x="75.438" y="45.085" smashed="yes" rot="R270">
<attribute name="NAME" x="73.533" y="49.53" size="1.27" layer="25"/>
</element>
<element name="C4" library="01_SparkFun" package="1206" value="10uF" x="65.532" y="53.467" smashed="yes" rot="R270">
<attribute name="NAME" x="66.675" y="54.737" size="0.4064" layer="25" rot="R270"/>
<attribute name="VALUE" x="64.008" y="54.864" size="0.4064" layer="27" rot="R270"/>
</element>
<element name="POWER_3" library="con-amp-quick" package="02P" value="" x="29.972" y="45.466" smashed="yes" rot="R90">
<attribute name="MF" value="" x="29.972" y="45.466" size="1.778" layer="27" rot="R90" display="off"/>
<attribute name="MPN" value="" x="29.972" y="45.466" size="1.778" layer="27" rot="R90" display="off"/>
<attribute name="NAME" x="27.0256" y="43.18" size="1.27" layer="25" ratio="10" rot="R90"/>
<attribute name="OC_FARNELL" value="unknown" x="29.972" y="45.466" size="1.778" layer="27" rot="R90" display="off"/>
<attribute name="OC_NEWARK" value="unknown" x="29.972" y="45.466" size="1.778" layer="27" rot="R90" display="off"/>
<attribute name="VALUE" x="33.8074" y="43.18" size="1.27" layer="27" ratio="10" rot="R90"/>
</element>
<element name="POWER_4" library="con-amp-quick" package="02P" value="" x="39.497" y="45.593" smashed="yes" rot="R90">
<attribute name="MF" value="" x="39.497" y="45.593" size="1.778" layer="27" rot="R90" display="off"/>
<attribute name="MPN" value="" x="39.497" y="45.593" size="1.778" layer="27" rot="R90" display="off"/>
<attribute name="NAME" x="36.5506" y="43.307" size="1.27" layer="25" ratio="10" rot="R90"/>
<attribute name="OC_FARNELL" value="unknown" x="39.497" y="45.593" size="1.778" layer="27" rot="R90" display="off"/>
<attribute name="OC_NEWARK" value="unknown" x="39.497" y="45.593" size="1.778" layer="27" rot="R90" display="off"/>
<attribute name="VALUE" x="43.3324" y="43.307" size="1.27" layer="27" ratio="10" rot="R90"/>
</element>
<element name="C5" library="01_SparkFun" package="1206" value="10uF" x="62.611" y="42.291" smashed="yes" rot="R90">
<attribute name="NAME" x="61.468" y="41.021" size="0.4064" layer="25" rot="R90"/>
<attribute name="VALUE" x="64.135" y="40.894" size="0.4064" layer="27" rot="R90"/>
</element>
<element name="R4" library="fab" package="R1206FAB" value="10K" x="43.307" y="49.784" smashed="yes">
<attribute name="NAME" x="41.529" y="51.054" size="1.016" layer="25" ratio="15"/>
<attribute name="VALUE" x="41.529" y="47.498" size="1.016" layer="27" ratio="15"/>
</element>
</elements>
<signals>
<signal name="VCC">
<contactref element="R1" pad="2"/>
<contactref element="001" pad="8"/>
<contactref element="C3" pad="1"/>
<contactref element="C1" pad="1"/>
<contactref element="C2" pad="1"/>
<wire x1="61.976" y1="49.273" x2="61.976" y2="49.276" width="0.3048" layer="1"/>
<contactref element="B1" pad="3"/>
<contactref element="REGULATOR" pad="OUT"/>
<contactref element="POWER_2" pad="1"/>
<contactref element="POWER_4" pad="1"/>
<contactref element="POWER_3" pad="1"/>
<contactref element="C5" pad="1"/>
<wire x1="61.976" y1="49.273" x2="61.849" y2="49.273" width="0.254" layer="1"/>
<wire x1="61.849" y1="49.273" x2="59.055" y2="49.273" width="0.254" layer="1"/>
<wire x1="59.055" y1="49.273" x2="55.499" y2="49.273" width="0.254" layer="1"/>
<wire x1="55.499" y1="49.146" x2="55.499" y2="49.273" width="0.254" layer="1"/>
<wire x1="62.611" y1="41.529" x2="62.611" y2="40.891" width="0.254" layer="1"/>
<wire x1="52.324" y1="40.64" x2="55.499" y2="43.815" width="0.254" layer="1"/>
<wire x1="55.499" y1="43.815" x2="55.499" y2="49.273" width="0.254" layer="1"/>
<wire x1="52.324" y1="40.64" x2="43.434" y2="40.64" width="0.254" layer="1"/>
<wire x1="43.307" y1="40.767" x2="43.434" y2="40.64" width="0.254" layer="1"/>
<wire x1="62.738" y1="49.276" x2="62.103" y2="49.276" width="0.254" layer="1"/>
<wire x1="62.103" y1="49.276" x2="61.852" y2="49.276" width="0.254" layer="1"/>
<wire x1="61.852" y1="49.276" x2="61.849" y2="49.273" width="0.254" layer="1"/>
<wire x1="62.611" y1="40.891" x2="62.611" y2="41.148" width="0.254" layer="1"/>
<wire x1="60.96" y1="40.767" x2="60.96" y2="48.133" width="0.254" layer="1"/>
<wire x1="60.96" y1="48.133" x2="62.103" y2="49.276" width="0.254" layer="1"/>
<wire x1="34.29" y1="53.975" x2="36.724" y2="53.975" width="0.254" layer="1"/>
<wire x1="34.163" y1="53.848" x2="34.29" y2="53.975" width="0.254" layer="1"/>
<wire x1="29.972" y1="44.196" x2="34.544" y2="44.196" width="0.254" layer="1"/>
<wire x1="39.497" y1="44.323" x2="39.37" y2="44.196" width="0.254" layer="1"/>
<wire x1="39.37" y1="44.196" x2="34.544" y2="44.196" width="0.254" layer="1"/>
<wire x1="43.307" y1="40.767" x2="43.053" y2="40.767" width="0.254" layer="1"/>
<wire x1="43.053" y1="40.767" x2="39.497" y2="44.323" width="0.254" layer="1"/>
<wire x1="29.972" y1="44.196" x2="26.924" y2="44.196" width="0.254" layer="1"/>
<wire x1="26.924" y1="44.196" x2="26.924" y2="47.498" width="0.254" layer="1"/>
<wire x1="28.321" y1="48.895" x2="34.163" y2="48.895" width="0.254" layer="1"/>
<wire x1="34.163" y1="48.895" x2="34.163" y2="53.848" width="0.254" layer="1"/>
<wire x1="26.924" y1="47.498" x2="28.321" y2="48.895" width="0.254" layer="1"/>
<wire x1="62.611" y1="40.891" x2="62.487" y2="40.767" width="0.254" layer="1"/>
<wire x1="62.487" y1="40.767" x2="60.96" y2="40.767" width="0.254" layer="1"/>
<wire x1="62.611" y1="40.891" x2="64.005" y2="40.891" width="0.254" layer="1"/>
<wire x1="64.005" y1="40.891" x2="65.786" y2="42.672" width="0.254" layer="1"/>
</signal>
<signal name="GND">
<contactref element="001" pad="4"/>
<contactref element="LED" pad="2"/>
<contactref element="C3" pad="2"/>
<contactref element="C2" pad="2"/>
<contactref element="C1" pad="2"/>
<contactref element="LED2" pad="2"/>
<contactref element="REGULATOR" pad="GND"/>
<contactref element="POWER_2" pad="2"/>
<contactref element="POWER_1" pad="2"/>
<wire x1="62.103" y1="51.946" x2="61.976" y2="52.073" width="0.254" layer="1"/>
<contactref element="POWER_4" pad="2"/>
<contactref element="POWER_3" pad="2"/>
<wire x1="65.526" y1="52.073" x2="63.754" y2="52.073" width="0.254" layer="1"/>
<wire x1="63.754" y1="52.073" x2="61.976" y2="52.073" width="0.254" layer="1"/>
<wire x1="59.055" y1="52.073" x2="61.976" y2="52.073" width="0.254" layer="1"/>
<wire x1="59.055" y1="52.073" x2="56.261" y2="52.073" width="0.254" layer="1"/>
<wire x1="56.261" y1="52.073" x2="55.499" y2="52.073" width="0.254" layer="1"/>
<wire x1="56.134" y1="52.2" x2="56.261" y2="52.073" width="0.254" layer="1"/>
<wire x1="55.499" y1="52.073" x2="55.499" y2="53.848" width="0.254" layer="1"/>
<wire x1="56.134" y1="53.848" x2="56.134" y2="55.118" width="0.254" layer="1"/>
<wire x1="50.673" y1="53.848" x2="48.641" y2="53.848" width="0.254" layer="1"/>
<wire x1="50.673" y1="53.848" x2="55.499" y2="53.848" width="0.254" layer="1"/>
<wire x1="55.499" y1="53.848" x2="56.134" y2="53.848" width="0.254" layer="1"/>
<wire x1="50.8" y1="48.895" x2="50.8" y2="53.721" width="0.254" layer="1"/>
<wire x1="50.8" y1="53.721" x2="50.673" y2="53.848" width="0.254" layer="1"/>
<wire x1="49.149" y1="48.514" x2="50.419" y2="48.514" width="0.254" layer="1"/>
<wire x1="50.419" y1="48.514" x2="50.8" y2="48.895" width="0.254" layer="1"/>
<wire x1="48.641" y1="53.848" x2="48.641" y2="55.753" width="0.254" layer="1"/>
<wire x1="48.641" y1="55.753" x2="46.619" y2="57.775" width="0.254" layer="1"/>
<wire x1="46.619" y1="57.775" x2="43.032" y2="57.775" width="0.254" layer="1"/>
<wire x1="43.032" y1="57.775" x2="42.915" y2="57.658" width="0.254" layer="1"/>
<wire x1="42.915" y1="57.658" x2="40.767" y2="57.658" width="0.254" layer="1"/>
<contactref element="C4" pad="2"/>
<contactref element="R4" pad="1"/>
<contactref element="C5" pad="2"/>
<wire x1="59.055" y1="52.073" x2="59.055" y2="55.372" width="0.254" layer="1"/>
<wire x1="59.055" y1="55.372" x2="60.198" y2="56.515" width="0.254" layer="1"/>
<wire x1="29.972" y1="46.736" x2="34.544" y2="46.736" width="0.254" layer="1"/>
<wire x1="34.544" y1="46.736" x2="39.37" y2="46.736" width="0.254" layer="1"/>
<wire x1="39.37" y1="46.736" x2="39.497" y2="46.863" width="0.254" layer="1"/>
<wire x1="39.497" y1="46.863" x2="41.656" y2="49.022" width="0.254" layer="1"/>
<wire x1="41.656" y1="49.022" x2="41.656" y2="49.784" width="0.254" layer="1"/>
<wire x1="40.767" y1="57.658" x2="40.767" y2="50.673" width="0.254" layer="1"/>
<wire x1="40.767" y1="50.673" x2="41.656" y2="49.784" width="0.254" layer="1"/>
<wire x1="62.611" y1="43.691" x2="63.754" y2="44.834" width="0.254" layer="1"/>
<wire x1="63.754" y1="44.834" x2="63.754" y2="52.073" width="0.254" layer="1"/>
<wire x1="65.786" y1="44.958" x2="65.662" y2="44.834" width="0.254" layer="1"/>
<wire x1="65.662" y1="44.834" x2="63.754" y2="44.834" width="0.254" layer="1"/>
<wire x1="65.526" y1="52.073" x2="65.532" y2="52.067" width="0" layer="19" extent="1-1"/>
</signal>
<signal name="N$8">
<contactref element="R2" pad="2"/>
<contactref element="LED" pad="1"/>
<wire x1="56.134" y1="58.42" x2="50.927" y2="58.42" width="0.254" layer="1"/>
<wire x1="50.927" y1="58.42" x2="50.8" y2="58.547" width="0.254" layer="1"/>
</signal>
<signal name="RST">
<contactref element="001" pad="1"/>
<contactref element="R1" pad="1"/>
<contactref element="RST" pad="1"/>
<wire x1="48.133" y1="43.942" x2="43.434" y2="43.942" width="0.254" layer="1"/>
<wire x1="43.434" y1="43.942" x2="43.307" y2="44.069" width="0.254" layer="1"/>
<wire x1="43.032" y1="53.975" x2="43.307" y2="53.975" width="0.254" layer="1"/>
<wire x1="43.032" y1="53.975" x2="44.704" y2="53.975" width="0.254" layer="1"/>
<wire x1="44.704" y1="53.975" x2="45.085" y2="53.594" width="0.254" layer="1"/>
<wire x1="45.085" y1="53.594" x2="45.085" y2="52.07" width="0.254" layer="1"/>
<wire x1="45.085" y1="52.07" x2="43.434" y2="52.07" width="0.254" layer="1"/>
<wire x1="43.434" y1="52.07" x2="43.307" y2="51.943" width="0.254" layer="1"/>
<wire x1="43.307" y1="51.943" x2="43.307" y2="44.069" width="0.254" layer="1"/>
</signal>
<signal name="ADC2">
<contactref element="001" pad="3"/>
<contactref element="R3" pad="1"/>
<wire x1="49.149" y1="51.943" x2="47.625" y2="53.467" width="0.254" layer="1"/>
<wire x1="47.625" y1="53.467" x2="47.625" y2="55.118" width="0.254" layer="1"/>
<wire x1="47.625" y1="55.118" x2="46.238" y2="56.505" width="0.254" layer="1"/>
<wire x1="46.238" y1="56.505" x2="43.032" y2="56.505" width="0.254" layer="1"/>
</signal>
<signal name="SCK">
<contactref element="001" pad="7"/>
<contactref element="R2" pad="1"/>
<contactref element="SL1" pad="1"/>
<wire x1="36.724" y1="55.245" x2="39.243" y2="55.245" width="0.254" layer="1"/>
<wire x1="50.8" y1="55.753" x2="50.8" y2="55.245" width="0.254" layer="1"/>
<wire x1="46.736" y1="59.309" x2="39.243" y2="59.309" width="0.254" layer="1"/>
<wire x1="39.243" y1="55.245" x2="39.243" y2="59.309" width="0.254" layer="1"/>
<wire x1="50.8" y1="55.245" x2="46.736" y2="59.309" width="0.254" layer="1"/>
<wire x1="30.226" y1="52.07" x2="30.353" y2="52.07" width="0.254" layer="1"/>
<wire x1="30.353" y1="52.07" x2="33.528" y2="55.245" width="0.254" layer="1"/>
<wire x1="33.528" y1="55.245" x2="36.724" y2="55.245" width="0.254" layer="1"/>
<wire x1="39.243" y1="59.309" x2="39.243" y2="59.309" width="0.254" layer="1"/>
</signal>
<signal name="BTN">
<contactref element="B1" pad="1"/>
<contactref element="001" pad="2"/>
<wire x1="52.324" y1="45.212" x2="50.927" y2="46.609" width="0.254" layer="1"/>
<wire x1="46.99" y1="46.609" x2="50.927" y2="46.609" width="0.254" layer="1"/>
<wire x1="45.73" y1="55.235" x2="46.609" y2="54.356" width="0.254" layer="1"/>
<wire x1="46.609" y1="54.356" x2="46.609" y2="49.784" width="0.254" layer="1"/>
<wire x1="46.609" y1="49.784" x2="46.609" y2="46.99" width="0.254" layer="1"/>
<wire x1="46.609" y1="46.99" x2="46.99" y2="46.609" width="0.254" layer="1"/>
<wire x1="43.032" y1="55.235" x2="45.73" y2="55.235" width="0.254" layer="1"/>
<contactref element="R4" pad="2"/>
<wire x1="43.022" y1="55.245" x2="43.032" y2="55.235" width="0.254" layer="1"/>
<wire x1="44.958" y1="49.784" x2="46.609" y2="49.784" width="0.254" layer="1"/>
</signal>
<signal name="MISO">
<contactref element="001" pad="6"/>
<contactref element="SL1" pad="2"/>
<wire x1="36.724" y1="56.515" x2="32.893" y2="56.515" width="0.254" layer="1"/>
<wire x1="32.893" y1="56.515" x2="30.988" y2="54.61" width="0.254" layer="1"/>
<wire x1="30.988" y1="54.61" x2="30.226" y2="54.61" width="0.254" layer="1"/>
</signal>
<signal name="MOSI">
<contactref element="001" pad="5"/>
<contactref element="SL1" pad="3"/>
<wire x1="30.226" y1="57.15" x2="31.623" y2="57.15" width="0.254" layer="1"/>
<wire x1="31.623" y1="57.15" x2="32.258" y2="57.785" width="0.254" layer="1"/>
<wire x1="32.258" y1="57.785" x2="36.724" y2="57.785" width="0.254" layer="1"/>
</signal>
<signal name="N$1">
<contactref element="LED2" pad="1"/>
<contactref element="R3" pad="2"/>
<wire x1="52.451" y1="51.943" x2="52.451" y2="48.514" width="0.254" layer="1"/>
</signal>
<signal name="N$2">
<contactref element="POWER_1" pad="1"/>
<contactref element="REGULATOR" pad="IN"/>
<contactref element="C4" pad="1"/>
<wire x1="65.659" y1="54.864" x2="65.405" y2="54.864" width="0.254" layer="1"/>
<wire x1="65.405" y1="54.864" x2="65.408" y2="54.867" width="0.254" layer="1"/>
<wire x1="65.408" y1="54.867" x2="65.532" y2="54.867" width="0.254" layer="1"/>
<wire x1="62.738" y1="56.515" x2="64.008" y2="56.515" width="0.254" layer="1"/>
<wire x1="64.008" y1="56.515" x2="65.659" y2="54.864" width="0.254" layer="1"/>
<wire x1="65.786" y1="47.244" x2="65.786" y2="48.641" width="0.254" layer="1"/>
<wire x1="65.786" y1="48.641" x2="67.437" y2="50.292" width="0.254" layer="1"/>
<wire x1="67.437" y1="50.292" x2="67.437" y2="54.737" width="0.254" layer="1"/>
<wire x1="67.437" y1="54.737" x2="65.786" y2="54.737" width="0.254" layer="1"/>
<wire x1="65.786" y1="54.737" x2="65.659" y2="54.864" width="0.254" layer="1"/>
</signal>
</signals>
<mfgpreviewcolors>
<mfgpreviewcolor name="soldermaskcolor" color="0xC8008000"/>
<mfgpreviewcolor name="silkscreencolor" color="0xFFFEFEFE"/>
<mfgpreviewcolor name="backgroundcolor" color="0xFF282828"/>
<mfgpreviewcolor name="coppercolor" color="0xFFFFBF00"/>
<mfgpreviewcolor name="substratecolor" color="0xFF786E46"/>
</mfgpreviewcolors>
</board>
</drawing>
<compatibility>
<note version="8.2" severity="warning">
Since Version 8.2, EAGLE supports online libraries. The ids
of those online libraries will not be understood (or retained)
with this version.
</note>
<note version="8.3" severity="warning">
Since Version 8.3, EAGLE supports URNs for individual library
assets (packages, symbols, and devices). The URNs of those assets
will not be understood (or retained) with this version.
</note>
<note version="8.3" severity="warning">
Since Version 8.3, EAGLE supports the association of 3D packages
with devices in libraries, schematics, and board files. Those 3D
packages will not be understood (or retained) with this version.
</note>
</compatibility>
</eagle>
